data/base-wall.CSV

Memory Length,4000,
Trigger Level,0.00000e+00,
Source,CH1,
Probe,1.0X,
Vertical Units,V,
Vertical Scale,1.00000e-01,
Vertical Position,-5.20000e-02,
Horizontal Units,S,
Horizontal Scale,2.50000e-08,
Horizontal Position,4.0000000e-02,
Horizontal Mode,Main,
Sampling Period,1.00000e-09,
Firmware,V1.14,
Time, ,
Mode,Fast,
Waveform Data,
9,
14,
9,
14,
17,
19,
23,
25,
29,
32,
35,
39,
41,
43,
45,
46,
50,
51,
53,
56,
57,
59,
60,
61,
63,
64,
66,
66,
68,
68,
68,
69,
71,
68,
69,
68,
68,
65,
61,
61,
59,
57,
57,
54,
53,
50,
49,
48,
47,
46,
43,
41,
41,
38,
36,
35,
34,
32,
31,
29,
28,
27,
25,
24,
24,
22,
21,
19,
19,
17,
16,
15,
15,
13,
12,
10,
9,
8,
6,
5,
5,
4,
3,
3,
3,
1,
-1,
-1,
-2,
-2,
-4,
-5,
-4,
-6,
-7,
-6,
-8,
-9,
-9,
-11,
-12,
-13,
-14,
-13,
-13,
-15,
-15,
-17,
-16,
-18,
-20,
-19,
-18,
-18,
-18,
-20,
-20,
-22,
-23,
-22,
-23,
-23,
-24,
-24,
-24,
-26,
-27,
-27,
-25,
-27,
-27,
-28,
-27,
-29,
-29,
-28,
-28,
-29,
-29,
-30,
-31,
-32,
-32,
-31,
-29,
-29,
-29,
-31,
-31,
-32,
-33,
-32,
-32,
-32,
-32,
-32,
-32,
-33,
-33,
-33,
-33,
-33,
-33,
-34,
-34,
-34,
-34,
-32,
-33,
-33,
-34,
-34,
-34,
-35,
-35,
-34,
-33,
-33,
-33,
-33,
-35,
-35,
-35,
-36,
-34,
-33,
-33,
-34,
-33,
-34,
-34,
-35,
-33,
-32,
-31,
-30,
-26,
-24,
-18,
-12,
-6,
-1,
3,
8,
11,
14,
18,
20,
25,
28,
31,
34,
37,
37,
40,
43,
47,
48,
51,
53,
55,
55,
57,
59,
61,
61,
64,
65,
68,
67,
66,
66,
67,
67,
69,
70,
70,
67,
66,
65,
63,
62,
59,
57,
55,
53,
52,
51,
50,
47,
47,
44,
45,
41,
38,
38,
37,
36,
35,
32,
31,
29,
27,
27,
25,
24,
23,
21,
22,
20,
18,
18,
16,
15,
13,
12,
12,
10,
8,
9,
8,
6,
5,
4,
4,
2,
1,
1,
0,
0,
-1,
-3,
-3,
-4,
-6,
-6,
-6,
-8,
-8,
-9,
-9,
-11,
-14,
-12,
-13,
-14,
-15,
-16,
-15,
-16,
-18,
-16,
-16,
-17,
-18,
-20,
-20,
-21,
-22,
-21,
-22,
-22,
-23,
-24,
-24,
-25,
-26,
-26,
-26,
-27,
-26,
-27,
-27,
-28,
-28,
-28,
-28,
-29,
-29,
-30,
-28,
-31,
-30,
-30,
-29,
-31,
-31,
-32,
-30,
-32,
-32,
-31,
-30,
-30,
-32,
-33,
-33,
-34,
-34,
-34,
-33,
-33,
-32,
-32,
-33,
-34,
-34,
-34,
-33,
-34,
-33,
-33,
-33,
-34,
-34,
-34,
-33,
-33,
-34,
-35,
-35,
-35,
-35,
-35,
-34,
-33,
-35,
-35,
-33,
-34,
-34,
-34,
-33,
-31,
-27,
-26,
-23,
-18,
-12,
-7,
-1,
4,
8,
12,
15,
18,
21,
24,
28,
32,
35,
37,
40,
42,
44,
45,
48,
50,
52,
54,
57,
58,
59,
61,
63,
64,
65,
65,
67,
67,
68,
69,
70,
68,
68,
69,
69,
67,
63,
62,
60,
58,
57,
55,
53,
52,
50,
49,
49,
46,
44,
43,
41,
39,
35,
36,
35,
33,
32,
30,
29,
27,
25,
24,
24,
23,
21,
19,
20,
17,
15,
15,
14,
12,
12,
11,
11,
9,
7,
7,
7,
4,
3,
3,
3,
1,
-2,
0,
-1,
-1,
-3,
-4,
-4,
-6,
-7,
-7,
-8,
-10,
-9,
-10,
-11,
-12,
-15,
-13,
-13,
-14,
-17,
-16,
-15,
-17,
-19,
-18,
-17,
-17,
-18,
-21,
-21,
-22,
-22,
-21,
-22,
-22,
-23,
-24,
-24,
-26,
-26,
-26,
-25,
-27,
-27,
-27,
-26,
-27,
-28,
-28,
-29,
-29,
-29,
-30,
-31,
-32,
-30,
-31,
-29,
-30,
-30,
-32,
-31,
-33,
-33,
-31,
-30,
-32,
-32,
-32,
-32,
-34,
-34,
-35,
-32,
-32,
-31,
-32,
-33,
-34,
-34,
-34,
-34,
-34,
-34,
-33,
-33,
-34,
-35,
-34,
-34,
-34,
-34,
-34,
-34,
-35,
-34,
-35,
-33,
-33,
-34,
-35,
-34,
-35,
-35,
-35,
-33,
-32,
-29,
-30,
-28,
-26,
-21,
-15,
-9,
-2,
2,
7,
10,
13,
16,
19,
23,
26,
29,
32,
36,
37,
42,
43,
47,
47,
49,
51,
53,
54,
57,
59,
61,
63,
63,
64,
66,
66,
66,
68,
68,
68,
69,
70,
70,
68,
66,
64,
63,
60,
60,
59,
57,
55,
52,
52,
50,
48,
47,
44,
44,
41,
38,
38,
36,
35,
35,
32,
30,
28,
26,
26,
26,
24,
24,
22,
21,
19,
17,
17,
16,
15,
14,
12,
12,
11,
8,
9,
7,
6,
5,
4,
4,
2,
1,
1,
1,
-1,
-1,
-4,
-4,
-5,
-6,
-5,
-7,
-7,
-7,
-8,
-10,
-11,
-14,
-13,
-13,
-13,
-15,
-15,
-14,
-16,
-18,
-18,
-17,
-17,
-18,
-20,
-20,
-19,
-21,
-20,
-21,
-22,
-23,
-23,
-24,
-26,
-26,
-24,
-24,
-25,
-25,
-27,
-27,
-28,
-29,
-29,
-28,
-29,
-29,
-29,
-28,
-30,
-31,
-31,
-29,
-32,
-30,
-31,
-30,
-32,
-32,
-31,
-31,
-31,
-32,
-32,
-31,
-33,
-34,
-33,
-32,
-32,
-33,
-33,
-34,
-34,
-34,
-34,
-33,
-33,
-33,
-33,
-33,
-35,
-35,
-35,
-33,
-33,
-34,
-35,
-35,
-35,
-34,
-35,
-33,
-33,
-33,
-34,
-33,
-34,
-34,
-34,
-33,
-32,
-32,
-33,
-31,
-28,
-25,
-19,
-13,
-8,
-2,
3,
6,
9,
12,
16,
19,
23,
27,
30,
33,
35,
38,
41,
44,
47,
47,
50,
53,
53,
55,
57,
59,
60,
61,
62,
64,
64,
65,
66,
68,
68,
69,
70,
71,
69,
67,
66,
65,
63,
62,
59,
57,
55,
52,
53,
51,
49,
47,
47,
48,
43,
40,
40,
37,
36,
35,
34,
32,
30,
30,
28,
28,
26,
25,
23,
23,
20,
19,
18,
16,
16,
14,
13,
13,
11,
10,
10,
9,
8,
7,
5,
4,
2,
2,
1,
0,
0,
-1,
-2,
-3,
-3,
-6,
-4,
-5,
-8,
-7,
-8,
-9,
-10,
-13,
-13,
-12,
-13,
-15,
-13,
-13,
-15,
-17,
-16,
-17,
-18,
-18,
-20,
-20,
-21,
-21,
-20,
-20,
-21,
-23,
-23,
-23,
-24,
-26,
-24,
-25,
-25,
-25,
-27,
-27,
-28,
-29,
-29,
-27,
-28,
-29,
-29,
-28,
-30,
-30,
-30,
-29,
-31,
-31,
-31,
-30,
-31,
-32,
-31,
-29,
-30,
-30,
-32,
-31,
-34,
-34,
-33,
-32,
-32,
-32,
-32,
-33,
-33,
-34,
-34,
-33,
-33,
-34,
-34,
-34,
-34,
-34,
-34,
-33,
-33,
-33,
-34,
-35,
-36,
-34,
-35,
-33,
-33,
-34,
-34,
-34,
-35,
-34,
-34,
-31,
-29,
-27,
-24,
-20,
-15,
-10,
-4,
1,
6,
10,
13,
16,
19,
22,
25,
30,
32,
36,
39,
42,
43,
46,
46,
50,
51,
53,
56,
58,
59,
60,
61,
63,
64,
65,
66,
69,
67,
68,
68,
70,
68,
69,
68,
68,
65,
61,
61,
59,
57,
56,
54,
53,
50,
49,
48,
48,
46,
43,
40,
40,
37,
36,
35,
35,
33,
31,
29,
28,
26,
25,
24,
23,
22,
21,
19,
19,
16,
14,
14,
14,
12,
12,
11,
9,
8,
6,
6,
5,
4,
3,
2,
2,
0,
-2,
-2,
-1,
-2,
-4,
-5,
-5,
-7,
-7,
-7,
-8,
-9,
-9,
-11,
-12,
-13,
-15,
-14,
-13,
-15,
-15,
-17,
-16,
-18,
-20,
-18,
-18,
-18,
-21,
-21,
-21,
-22,
-22,
-21,
-22,
-23,
-23,
-25,
-25,
-26,
-26,
-26,
-25,
-26,
-27,
-27,
-27,
-28,
-30,
-28,
-28,
-29,
-29,
-30,
-29,
-32,
-31,
-31,
-29,
-31,
-31,
-32,
-31,
-32,
-33,
-32,
-32,
-32,
-32,
-32,
-32,
-33,
-34,
-33,
-32,
-32,
-33,
-33,
-35,
-35,
-34,
-34,
-33,
-33,
-34,
-34,
-34,
-35,
-35,
-34,
-34,
-34,
-34,
-35,
-35,
-35,
-35,
-35,
-33,
-33,
-33,
-34,
-32,
-34,
-33,
-31,
-27,
-22,
-17,
-12,
-8,
-3,
1,
6,
11,
14,
18,
22,
24,
26,
30,
33,
37,
39,
41,
44,
48,
48,
50,
51,
55,
56,
58,
59,
60,
61,
63,
64,
66,
66,
67,
69,
71,
69,
68,
68,
68,
66,
67,
64,
64,
60,
58,
58,
56,
53,
53,
51,
49,
47,
46,
44,
43,
41,
39,
38,
37,
35,
32,
32,
31,
31,
28,
27,
27,
24,
22,
21,
20,
18,
18,
16,
16,
15,
14,
13,
12,
10,
9,
8,
8,
5,
4,
4,
3,
3,
3,
0,
0,
-1,
-2,
-2,
-3,
-5,
-6,
-5,
-6,
-9,
-10,
-10,
-9,
-11,
-11,
-12,
-13,
-14,
-16,
-15,
-15,
-15,
-15,
-18,
-18,
-17,
-19,
-20,
-19,
-21,
-23,
-21,
-21,
-24,
-24,
-21,
-23,
-23,
-24,
-26,
-26,
-27,
-27,
-27,
-26,
-28,
-27,
-28,
-28,
-29,
-30,
-29,
-29,
-30,
-31,
-30,
-29,
-32,
-31,
-31,
-29,
-30,
-30,
-32,
-31,
-33,
-33,
-32,
-30,
-32,
-33,
-32,
-32,
-34,
-34,
-33,
-33,
-32,
-32,
-33,
-33,
-34,
-34,
-35,
-33,
-33,
-34,
-34,
-35,
-34,
-34,
-34,
-34,
-34,
-34,
-35,
-34,
-35,
-34,
-35,
-33,
-33,
-34,
-35,
-32,
-34,
-34,
-32,
-28,
-25,
-19,
-14,
-11,
-5,
0,
4,
8,
12,
17,
20,
24,
25,
29,
32,
35,
37,
41,
43,
47,
47,
49,
51,
54,
55,
57,
59,
60,
61,
63,
64,
66,
66,
67,
67,
69,
69,
68,
70,
68,
67,
66,
66,
65,
62,
59,
59,
57,
54,
53,
51,
48,
47,
46,
44,
42,
41,
40,
39,
38,
35,
34,
32,
32,
29,
28,
27,
27,
24,
22,
21,
20,
19,
19,
16,
16,
15,
14,
13,
13,
11,
10,
8,
8,
6,
4,
4,
4,
3,
2,
0,
0,
-1,
-4,
-3,
-3,
-5,
-6,
-7,
-7,
-8,
-10,
-9,
-9,
-11,
-11,
-12,
-12,
-14,
-16,
-15,
-14,
-15,
-16,
-18,
-18,
-18,
-20,
-18,
-17,
-20,
-22,
-21,
-21,
-23,
-24,
-21,
-23,
-24,
-24,
-25,
-26,
-26,
-27,
-28,
-26,
-28,
-27,
-28,
-27,
-28,
-29,
-29,
-28,
-29,
-30,
-30,
-29,
-32,
-32,
-31,
-30,
-29,
-30,
-32,
-33,
-33,
-33,
-32,
-30,
-32,
-33,
-33,
-32,
-34,
-34,
-34,
-33,
-33,
-32,
-33,
-33,
-34,
-34,
-34,
-34,
-34,
-35,
-34,
-34,
-34,
-34,
-34,
-34,
-34,
-34,
-35,
-35,
-36,
-34,
-34,
-33,
-33,
-35,
-36,
-35,
-36,
-35,
-35,
-33,
-34,
-33,
-34,
-35,
-35,
-34,
-34,
-31,
-28,
-25,
-20,
-15,
-10,
-6,
-1,
4,
8,
11,
16,
19,
21,
25,
28,
31,
34,
37,
40,
42,
44,
48,
49,
52,
54,
56,
58,
59,
59,
60,
61,
64,
65,
66,
67,
69,
68,
68,
68,
68,
68,
68,
67,
66,
65,
61,
61,
59,
56,
54,
53,
53,
49,
48,
47,
47,
44,
43,
40,
39,
36,
34,
34,
34,
33,
32,
29,
28,
26,
23,
22,
23,
21,
21,
20,
20,
17,
15,
14,
14,
12,
11,
9,
9,
8,
6,
6,
5,
4,
3,
2,
3,
-1,
-2,
-2,
-2,
-3,
-4,
-5,
-4,
-6,
-7,
-7,
-8,
-9,
-10,
-11,
-12,
-13,
-15,
-14,
-14,
-15,
-15,
-16,
-16,
-18,
-20,
-19,
-19,
-19,
-19,
-21,
-21,
-22,
-23,
-21,
-23,
-23,
-24,
-25,
-24,
-26,
-27,
-26,
-26,
-28,
-27,
-28,
-28,
-29,
-30,
-28,
-28,
-29,
-29,
-30,
-28,
-31,
-30,
-30,
-29,
-30,
-30,
-31,
-32,
-33,
-33,
-32,
-31,
-32,
-33,
-33,
-32,
-33,
-33,
-32,
-33,
-33,
-33,
-33,
-32,
-34,
-34,
-34,
-33,
-33,
-34,
-34,
-34,
-35,
-34,
-34,
-33,
-34,
-34,
-35,
-34,
-34,
-34,
-35,
-34,
-33,
-35,
-35,
-34,
-35,
-34,
-34,
-33,
-32,
-32,
-30,
-28,
-26,
-20,
-15,
-9,
-4,
2,
6,
9,
12,
15,
18,
23,
26,
30,
32,
36,
38,
41,
43,
47,
48,
50,
52,
55,
56,
56,
58,
60,
62,
63,
64,
65,
66,
66,
68,
68,
67,
68,
70,
69,
67,
65,
65,
63,
62,
59,
58,
57,
55,
52,
52,
50,
48,
47,
44,
44,
40,
37,
37,
37,
35,
35,
32,
32,
29,
26,
26,
25,
25,
24,
22,
21,
19,
17,
17,
15,
15,
13,
12,
11,
10,
9,
8,
8,
6,
5,
4,
4,
2,
1,
1,
0,
-1,
-1,
-4,
-4,
-6,
-7,
-6,
-7,
-8,
-7,
-9,
-10,
-11,
-13,
-12,
-13,
-14,
-15,
-15,
-16,
-17,
-18,
-18,
-17,
-19,
-19,
-20,
-20,
-21,
-21,
-20,
-20,
-21,
-23,
-24,
-23,
-26,
-26,
-26,
-25,
-26,
-25,
-27,
-27,
-28,
-28,
-28,
-27,
-29,
-29,
-30,
-28,
-30,
-30,
-30,
-29,
-29,
-29,
-31,
-31,
-32,
-32,
-32,
-30,
-32,
-32,
-32,
-32,
-34,
-34,
-33,
-33,
-33,
-32,
-33,
-33,
-33,
-33,
-34,
-33,
-33,
-33,
-34,
-34,
-35,
-34,
-34,
-33,
-33,
-33,
-35,
-34,
-35,
-34,
-35,
-34,
-33,
-34,
-34,
-34,
-35,
-34,
-34,
-32,
-31,
-29,
-30,
-27,
-24,
-19,
-13,
-7,
-1,
2,
8,
11,
13,
16,
19,
23,
27,
31,
33,
36,
38,
42,
43,
47,
48,
50,
52,
55,
55,
57,
59,
61,
62,
63,
64,
66,
66,
66,
67,
68,
69,
69,
70,
69,
67,
65,
64,
63,
61,
59,
58,
57,
54,
52,
51,
50,
47,
47,
44,
44,
42,
39,
39,
36,
35,
34,
32,
32,
29,
27,
26,
26,
24,
23,
22,
21,
18,
17,
17,
16,
15,
13,
13,
12,
10,
9,
9,
8,
6,
5,
4,
5,
2,
1,
1,
0,
-1,
-1,
-3,
-3,
-5,
-6,
-5,
-7,
-8,
-7,
-9,
-10,
-10,
-14,
-12,
-13,
-13,
-13,
-14,
-15,
-16,
-18,
-17,
-17,
-18,
-17,
-19,
-19,
-19,
-22,
-20,
-23,
-22,
-23,
-24,
-23,
-24,
-25,
-24,
-24,
-25,
-25,
-27,
-28,
-28,
-29,
-28,
-26,
-28,
-28,
-28,
-28,
-31,
-31,
-30,
-30,
-30,
-29,
-30,
-31,
-32,
-32,
-31,
-31,
-31,
-32,
-33,
-32,
-33,
-33,
-32,
-31,
-32,
-33,
-33,
-32,
-34,
-34,
-32,
-33,
-32,
-33,
-34,
-35,
-36,
-34,
-35,
-33,
-32,
-32,
-34,
-34,
-35,
-36,
-35,
-34,
-34,
-34,
-34,
-35,
-35,
-34,
-34,
-33,
-33,
-34,
-35,
-34,
-34,
-32,
-30,
-25,
-22,
-17,
-12,
-7,
-2,
2,
6,
10,
14,
18,
22,
25,
27,
30,
32,
36,
40,
41,
46,
49,
48,
50,
52,
55,
56,
57,
59,
61,
62,
63,
64,
65,
66,
67,
68,
69,
68,
68,
69,
68,
67,
67,
64,
64,
61,
58,
58,
56,
53,
53,
51,
49,
46,
45,
43,
42,
39,
39,
37,
37,
35,
33,
32,
31,
30,
27,
26,
26,
23,
22,
21,
21,
19,
19,
17,
16,
14,
13,
12,
12,
10,
9,
8,
8,
6,
4,
4,
3,
3,
1,
0,
0,
-2,
-4,
-4,
-4,
-5,
-6,
-7,
-7,
-7,
-10,
-8,
-9,
-11,
-11,
-12,
-13,
-15,
-17,
-15,
-16,
-17,
-17,
-19,
-18,
-18,
-20,
-20,
-19,
-21,
-23,
-22,
-23,
-24,
-23,
-21,
-24,
-24,
-24,
-25,
-25,
-26,
-28,
-28,
-27,
-28,
-27,
-28,
-27,
-29,
-29,
-29,
-29,
-29,
-30,
-30,
-29,
-32,
-32,
-31,
-30,
-32,
-31,
-32,
-32,
-33,
-34,
-32,
-31,
-32,
-32,
-33,
-32,
-33,
-34,
-33,
-33,
-33,
-33,
-33,
-33,
-34,
-34,
-34,
-33,
-33,
-33,
-35,
-34,
-34,
-34,
-35,
-34,
-34,
-34,
-34,
-33,
-34,
-35,
-36,
-33,
-33,
-33,
-35,
-35,
-36,
-34,
-34,
-33,
-33,
-33,
-33,
-34,
-34,
-32,
-30,
-25,
-20,
-15,
-8,
-3,
0,
4,
8,
12,
16,
19,
23,
27,
30,
31,
34,
38,
40,
43,
46,
48,
48,
50,
52,
55,
56,
59,
60,
62,
63,
64,
65,
67,
67,
67,
69,
70,
68,
68,
69,
68,
66,
66,
63,
63,
60,
56,
57,
55,
53,
51,
49,
49,
46,
45,
44,
42,
39,
39,
37,
36,
34,
33,
32,
30,
29,
27,
26,
25,
22,
21,
20,
21,
19,
18,
16,
16,
14,
11,
10,
10,
9,
8,
8,
6,
4,
3,
4,
3,
2,
1,
-1,
0,
-2,
-4,
-3,
-3,
-5,
-6,
-7,
-8,
-9,
-10,
-8,
-9,
-10,
-11,
-13,
-15,
-15,
-17,
-15,
-15,
-16,
-15,
-18,
-17,
-18,
-20,
-20,
-21,
-21,
-22,
-22,
-23,
-23,
-24,
-22,
-23,
-25,
-25,
-26,
-25,
-27,
-28,
-27,
-26,
-27,
-27,
-28,
-27,
-29,
-30,
-29,
-29,
-29,
-29,
-30,
-29,
-32,
-32,
-31,
-29,
-30,
-29,
-31,
-32,
-33,
-33,
-33,
-32,
-32,
-33,
-33,
-32,
-33,
-34,
-33,
-33,
-33,
-33,
-34,
-33,
-34,
-34,
-35,
-33,
-33,
-33,
-34,
-35,
-36,
-36,
-35,
-33,
-34,
-34,
-34,
-33,
-35,
-35,
-35,
-34,
-33,
-33,
-33,
-32,
-32,
-31,
-28,
-24,
-18,
-13,
-8,
-4,
1,
6,
10,
14,
17,
21,
24,
26,
28,
32,
34,
39,
42,
44,
47,
49,
50,
51,
52,
56,
58,
59,
60,
63,
63,
64,
65,
67,
67,
68,
70,
71,
70,
68,
68,
67,
66,
65,
62,
62,
59,
56,
56,
55,
53,
51,
49,
48,
46,
44,
43,
41,
39,
39,
36,
36,
32,
31,
30,
29,
28,
27,
25,
24,
22,
22,
21,
20,
18,
18,
16,
16,
14,
12,
12,
11,
9,
9,
7,
7,
4,
2,
3,
3,
1,
1,
-1,
0,
-2,
-4,
-4,
-4,
-6,
-6,
-7,
-7,
-9,
-12,
-11,
-11,
-11,
-12,
-14,
-15,
-15,
-16,
-15,
-15,
-16,
-17,
-19,
-18,
-18,
-21,
-19,
-19,
-21,
-22,
-22,
-23,
-25,
-25,
-23,
-24,
-24,
-25,
-26,
-25,
-26,
-27,
-27,
-27,
-27,
-28,
-28,
-28,
-30,
-30,
-29,
-29,
-30,
-30,
-31,
-31,
-32,
-32,
-31,
-30,
-30,
-30,
-32,
-33,
-34,
-33,
-32,
-32,
-32,
-33,
-33,
-33,
-34,
-34,
-34,
-33,
-33,
-33,
-34,
-34,
-34,
-34,
-34,
-33,
-33,
-34,
-35,
-35,
-35,
-34,
-34,
-33,
-33,
-34,
-35,
-35,
-36,
-36,
-35,
-33,
-32,
-32,
-32,
-29,
-30,
-26,
-21,
-15,
-10,
-4,
0,
4,
8,
12,
14,
19,
23,
25,
29,
32,
33,
36,
40,
42,
44,
47,
50,
52,
52,
55,
56,
59,
59,
61,
63,
64,
65,
66,
66,
68,
68,
69,
70,
71,
69,
67,
66,
66,
64,
63,
60,
58,
56,
54,
52,
52,
48,
47,
47,
48,
44,
41,
41,
39,
37,
37,
34,
33,
30,
30,
28,
28,
27,
25,
23,
23,
21,
18,
18,
18,
17,
15,
14,
13,
11,
9,
9,
9,
7,
8,
6,
5,
3,
2,
1,
0,
0,
-1,
-3,
-3,
-2,
-5,
-4,
-5,
-6,
-7,
-9,
-8,
-11,
-13,
-12,
-11,
-12,
-14,
-14,
-15,
-16,
-18,
-16,
-17,
-17,
-17,
-20,
-20,
-19,
-21,
-20,
-20,
-21,
-23,
-23,
-24,
-24,
-25,
-24,
-24,
-26,
-25,
-27,
-26,
-27,
-27,
-26,
-26,
-28,
-29,
-30,
-28,
-32,
-30,
-29,
-29,
-30,
-29,
-31,
-31,
-32,
-32,
-31,
-30,
-30,
-31,
-32,
-31,
-33,
-34,
-34,
-33,
-33,
-33,
-32,
-32,
-33,
-34,
-34,
-33,
-33,
-33,
-35,
-33,
-34,
-34,
-34,
-33,
-34,
-34,
-35,
-35,
-35,
-34,
-35,
-33,
-33,
-35,
-35,
-35,
-35,
-35,
-35,
-33,
-33,
-31,
-32,
-31,
-29,
-25,
-20,
-14,
-9,
-4,
2,
6,
10,
13,
16,
20,
23,
26,
29,
32,
35,
38,
40,
44,
46,
49,
50,
53,
53,
55,
57,
59,
61,
62,
64,
65,
65,
66,
67,
68,
67,
68,
71,
72,
69,
66,
66,
64,
63,
62,
59,
57,
56,
54,
52,
52,
48,
47,
46,
46,
43,
40,
41,
39,
36,
37,
34,
32,
30,
28,
28,
27,
26,
25,
23,
22,
20,
18,
18,
18,
16,
15,
14,
13,
11,
10,
10,
8,
7,
7,
5,
5,
3,
2,
2,
2,
0,
-1,
-3,
-3,
-4,
-6,
-5,
-5,
-8,
-7,
-9,
-8,
-10,
-13,
-12,
-11,
-13,
-15,
-15,
-15,
-16,
-17,
-16,
-17,
-17,
-17,
-20,
-20,
-20,
-21,
-20,
-20,
-22,
-23,
-24,
-24,
-25,
-25,
-25,
-24,
-25,
-25,
-27,
-26,
-27,
-28,
-28,
-27,
-28,
-29,
-28,
-28,
-30,
-30,
-29,
-29,
-30,
-30,
-31,
-31,
-32,
-32,
-31,
-29,
-30,
-31,
-32,
-32,
-33,
-33,
-34,
-33,
-33,
-33,
-33,
-32,
-34,
-34,
-34,
-33,
-33,
-32,
-33,
-34,
-34,
-34,
-34,
-33,
-33,
-33,
-34,
-35,
-35,
-36,
-35,
-34,
-33,
-34,
-34,
-33,
-34,
-34,
-31,
-27,
-24,
-22,
-17,
-12,
-7,
-2,
3,
7,
11,
15,
19,
22,
24,
28,
30,
34,
37,
41,
43,
46,
46,
48,
50,
53,
54,
56,
58,
60,
61,
62,
63,
65,
66,
67,
68,
68,
69,
68,
69,
70,
68,
67,
66,
65,
62,
59,
59,
56,
54,
53,
52,
51,
48,
46,
44,
44,
43,
41,
39,
39,
36,
34,
33,
32,
29,
30,
27,
26,
24,
22,
21,
21,
20,
18,
17,
17,
15,
14,
13,
12,
11,
9,
8,
8,
6,
5,
5,
4,
3,
2,
1,
0,
-2,
-3,
-2,
-2,
-4,
-5,
-6,
-6,
-7,
-8,
-8,
-9,
-10,
-11,
-12,
-13,
-14,
-16,
-15,
-14,
-15,
-17,
-18,
-18,
-17,
-20,
-19,
-17,
-21,
-22,
-22,
-21,
-22,
-23,
-22,
-24,
-24,
-24,
-25,
-25,
-26,
-27,
-27,
-26,
-27,
-27,
-27,
-27,
-28,
-29,
-29,
-29,
-29,
-29,
-30,
-28,
-31,
-31,
-31,
-30,
-30,
-31,
-32,
-32,
-33,
-33,
-32,
-31,
-32,
-33,
-33,
-32,
-33,
-33,
-32,
-33,
-33,
-33,
-33,
-34,
-35,
-34,
-35,
-33,
-33,
-33,
-34,
-33,
-35,
-35,
-35,
-34,
-34,
-34,
-34,
-33,
-34,
-34,
-35,
-34,
-33,
-35,
-36,
-36,
-37,
-35,
-34,
-33,
-32,
-32,
-32,
-29,
-28,
-24,
-19,
-12,
-8,
-1,
2,
6,
9,
13,
16,
20,
24,
27,
30,
35,
36,
38,
41,
45,
47,
49,
51,
53,
54,
55,
57,
60,
62,
62,
63,
64,
65,
66,
67,
67,
68,
69,
70,
70,
69,
66,
65,
64,
63,
61,
59,
57,
55,
53,
52,
51,
48,
47,
46,
46,
43,
39,
40,
38,
37,
36,
33,
33,
31,
30,
28,
27,
26,
25,
23,
22,
19,
18,
18,
18,
16,
15,
13,
13,
11,
9,
9,
8,
7,
6,
5,
4,
3,
2,
2,
0,
-1,
-1,
-3,
-2,
-3,
-6,
-4,
-5,
-6,
-7,
-8,
-10,
-10,
-13,
-12,
-11,
-13,
-15,
-15,
-15,
-16,
-18,
-16,
-17,
-17,
-17,
-20,
-19,
-19,
-21,
-19,
-20,
-21,
-23,
-24,
-24,
-26,
-26,
-24,
-25,
-26,
-25,
-27,
-26,
-27,
-28,
-28,
-27,
-28,
-29,
-30,
-28,
-31,
-31,
-30,
-29,
-29,
-29,
-29,
-29,
-31,
-32,
-31,
-30,
-31,
-32,
-33,
-32,
-33,
-33,
-32,
-30,
-32,
-32,
-33,
-33,
-34,
-34,
-34,
-33,
-33,
-34,
-35,
-35,
-36,
-36,
-35,
-33,
-33,
-33,
-34,
-35,
-35,
-34,
-35,
-34,
-33,
-34,
-34,
-34,
-34,
-34,
-34,
-33,
-33,
-32,
-32,
-29,
-28,
-24,
-19,
-13,
-8,
-1,
3,
6,
10,
13,
16,
21,
24,
27,
31,
33,
35,
38,
41,
44,
47,
49,
51,
53,
53,
55,
57,
60,
61,
62,
63,
65,
65,
66,
67,
68,
68,
69,
70,
70,
69,
66,
66,
65,
63,
61,
59,
58,
55,
52,
52,
51,
49,
47,
45,
46,
42,
40,
40,
37,
35,
35,
34,
33,
31,
30,
29,
27,
26,
25,
22,
22,
20,
19,
18,
18,
16,
15,
13,
13,
11,
10,
10,
8,
7,
6,
6,
5,
3,
2,
1,
0,
-1,
-1,
-3,
-3,
-3,
-6,
-4,
-5,
-7,
-7,
-8,
-9,
-10,
-13,
-12,
-12,
-13,
-15,
-14,
-14,
-17,
-18,
-16,
-17,
-17,
-16,
-19,
-20,
-19,
-20,
-19,
-21,
-22,
-23,
-23,
-23,
-24,
-26,
-25,
-25,
-26,
-25,
-27,
-27,
-27,
-28,
-28,
-26,
-28,
-29,
-30,
-28,
-31,
-30,
-30,
-29,
-29,
-29,
-31,
-32,
-32,
-32,
-31,
-31,
-32,
-31,
-32,
-31,
-33,
-33,
-34,
-33,
-33,
-33,
-33,
-32,
-34,
-33,
-32,
-33,
-33,
-33,
-34,
-33,
-35,
-35,
-34,
-33,
-33,
-33,
-34,
-35,
-36,
-34,
-35,
-34,
-33,
-34,
-33,
-33,
-34,
-34,
-34,
-30,
-28,
-25,
-20,
-15,
-10,
-5,
0,
4,
8,
12,
16,
20,
22,
26,
28,
32,
35,
39,
40,
42,
44,
47,
49,
52,
53,
55,
56,
59,
59,
61,
62,
64,
66,
66,
66,
68,
68,
68,
69,
69,
69,
69,
67,
68,
64,
61,
61,
59,
56,
53,
53,
52,
48,
48,
46,
45,
43,
42,
40,
40,
37,
35,
34,
33,
31,
31,
29,
29,
26,
23,
22,
23,
21,
20,
18,
17,
15,
14,
13,
13,
11,
11,
10,
9,
8,
6,
6,
5,
4,
3,
2,
2,
-1,
-3,
-2,
-2,
-2,
-4,
-5,
-5,
-7,
-8,
-7,
-9,
-10,
-9,
-11,
-12,
-13,
-14,
-13,
-13,
-15,
-15,
-17,
-17,
-18,
-20,
-18,
-18,
-21,
-22,
-21,
-20,
-22,
-23,
-22,
-23,
-23,
-25,
-25,
-25,
-26,
-27,
-26,
-25,
-28,
-27,
-28,
-27,
-29,
-29,
-28,
-29,
-29,
-29,
-30,
-29,
-32,
-31,
-31,
-30,
-31,
-31,
-32,
-31,
-33,
-34,
-33,
-32,
-33,
-33,
-33,
-32,
-33,
-33,
-32,
-33,
-33,
-33,
-33,
-34,
-34,
-34,
-35,
-33,
-33,
-33,
-33,
-33,
-35,
-34,
-35,
-33,
-34,
-34,
-34,
-34,
-35,
-34,
-34,
