data/base-close.CSV

Memory Length,4000,
Trigger Level,0.00000e+00,
Source,CH1,
Probe,1.0X,
Vertical Units,V,
Vertical Scale,1.00000e-01,
Vertical Position,-5.20000e-02,
Horizontal Units,S,
Horizontal Scale,2.50000e-08,
Horizontal Position,4.0000000e-02,
Horizontal Mode,Main,
Sampling Period,1.00000e-09,
Firmware,V1.14,
Time, ,
Mode,Fast,
Waveform Data,
63,
64,
63,
64,
65,
65,
65,
66,
67,
66,
66,
65,
65,
62,
58,
58,
57,
55,
53,
52,
51,
48,
46,
44,
44,
43,
41,
38,
38,
35,
32,
32,
31,
29,
29,
27,
27,
24,
22,
22,
21,
20,
19,
16,
16,
14,
13,
12,
12,
10,
9,
8,
7,
5,
4,
4,
3,
2,
1,
0,
0,
-2,
-4,
-3,
-3,
-5,
-7,
-8,
-8,
-10,
-10,
-9,
-10,
-12,
-11,
-14,
-14,
-15,
-17,
-16,
-16,
-16,
-17,
-19,
-19,
-19,
-22,
-21,
-21,
-22,
-23,
-23,
-24,
-26,
-26,
-24,
-25,
-26,
-25,
-27,
-27,
-29,
-28,
-28,
-27,
-28,
-28,
-30,
-28,
-31,
-32,
-31,
-30,
-31,
-31,
-32,
-31,
-33,
-33,
-32,
-32,
-32,
-31,
-33,
-34,
-34,
-34,
-34,
-33,
-33,
-35,
-34,
-34,
-35,
-34,
-34,
-34,
-34,
-35,
-35,
-35,
-36,
-37,
-36,
-34,
-35,
-35,
-35,
-36,
-37,
-37,
-36,
-35,
-34,
-35,
-36,
-35,
-37,
-37,
-36,
-35,
-35,
-34,
-34,
-33,
-32,
-28,
-23,
-17,
-12,
-7,
-2,
3,
6,
10,
13,
17,
20,
23,
27,
30,
31,
34,
37,
42,
44,
45,
48,
50,
52,
52,
54,
57,
59,
59,
60,
62,
62,
64,
64,
67,
65,
67,
67,
68,
66,
64,
64,
63,
61,
60,
59,
57,
54,
51,
52,
50,
48,
45,
44,
43,
41,
38,
38,
37,
34,
34,
32,
30,
28,
26,
26,
27,
24,
23,
20,
21,
18,
18,
17,
16,
15,
13,
12,
11,
9,
7,
8,
7,
6,
5,
3,
4,
1,
0,
0,
0,
-1,
-2,
-5,
-4,
-6,
-8,
-6,
-8,
-8,
-9,
-10,
-12,
-13,
-14,
-14,
-13,
-15,
-15,
-16,
-16,
-18,
-20,
-19,
-17,
-19,
-19,
-22,
-21,
-23,
-24,
-22,
-23,
-24,
-24,
-25,
-25,
-27,
-27,
-27,
-26,
-27,
-27,
-28,
-27,
-28,
-30,
-29,
-29,
-29,
-29,
-31,
-31,
-33,
-31,
-32,
-30,
-31,
-31,
-32,
-32,
-33,
-34,
-34,
-33,
-33,
-33,
-33,
-32,
-34,
-34,
-34,
-34,
-34,
-34,
-35,
-35,
-36,
-35,
-35,
-34,
-34,
-35,
-35,
-35,
-36,
-36,
-36,
-35,
-35,
-35,
-36,
-36,
-37,
-37,
-37,
-35,
-34,
-35,
-36,
-36,
-36,
-35,
-35,
-33,
-32,
-29,
-25,
-21,
-16,
-11,
-5,
0,
4,
8,
12,
16,
18,
21,
24,
28,
31,
33,
38,
40,
41,
44,
46,
50,
51,
52,
54,
56,
56,
58,
59,
62,
61,
63,
64,
66,
66,
66,
66,
67,
66,
67,
65,
65,
62,
59,
59,
58,
55,
55,
52,
50,
47,
46,
44,
45,
43,
41,
38,
39,
35,
34,
33,
32,
29,
29,
27,
27,
24,
22,
22,
21,
20,
19,
16,
16,
15,
14,
13,
12,
11,
9,
8,
8,
5,
4,
4,
3,
2,
1,
0,
-1,
-2,
-5,
-4,
-4,
-6,
-7,
-7,
-7,
-9,
-10,
-9,
-10,
-12,
-11,
-13,
-15,
-16,
-17,
-15,
-16,
-16,
-17,
-18,
-19,
-20,
-21,
-20,
-20,
-22,
-23,
-23,
-22,
-24,
-25,
-24,
-25,
-25,
-25,
-26,
-27,
-27,
-28,
-28,
-28,
-28,
-29,
-30,
-28,
-31,
-31,
-30,
-30,
-32,
-31,
-32,
-32,
-33,
-33,
-32,
-31,
-32,
-33,
-34,
-33,
-34,
-34,
-34,
-33,
-33,
-34,
-34,
-34,
-35,
-35,
-34,
-34,
-34,
-35,
-35,
-35,
-36,
-36,
-36,
-34,
-34,
-35,
-36,
-35,
-36,
-37,
-36,
-35,
-35,
-36,
-37,
-36,
-37,
-37,
-36,
-34,
-35,
-34,
-35,
-35,
-36,
-35,
-34,
-30,
-27,
-23,
-18,
-13,
-8,
-4,
1,
7,
10,
13,
18,
22,
23,
26,
29,
33,
35,
38,
42,
44,
45,
47,
49,
51,
53,
55,
56,
59,
59,
59,
61,
63,
63,
65,
65,
67,
67,
66,
67,
67,
65,
65,
64,
63,
61,
57,
57,
55,
53,
51,
50,
48,
46,
46,
44,
43,
40,
39,
37,
37,
33,
32,
32,
30,
28,
27,
25,
25,
22,
20,
19,
20,
18,
17,
16,
15,
13,
12,
12,
11,
9,
9,
7,
6,
4,
3,
3,
3,
1,
0,
-2,
-2,
-2,
-5,
-4,
-5,
-7,
-8,
-8,
-8,
-10,
-12,
-12,
-10,
-12,
-12,
-13,
-16,
-16,
-18,
-16,
-16,
-17,
-17,
-20,
-19,
-19,
-22,
-22,
-20,
-23,
-23,
-24,
-23,
-26,
-26,
-24,
-25,
-26,
-26,
-28,
-28,
-29,
-28,
-28,
-27,
-28,
-29,
-30,
-29,
-31,
-32,
-31,
-30,
-32,
-31,
-32,
-32,
-33,
-33,
-33,
-32,
-33,
-33,
-34,
-33,
-34,
-34,
-34,
-33,
-33,
-34,
-35,
-35,
-35,
-36,
-35,
-34,
-34,
-35,
-36,
-35,
-36,
-37,
-36,
-35,
-35,
-35,
-36,
-36,
-37,
-37,
-36,
-35,
-34,
-35,
-36,
-36,
-37,
-37,
-36,
-34,
-34,
-32,
-32,
-28,
-25,
-19,
-14,
-9,
-4,
0,
6,
9,
13,
16,
19,
24,
26,
29,
32,
35,
36,
40,
42,
47,
48,
49,
51,
53,
54,
55,
56,
59,
60,
62,
62,
66,
65,
65,
66,
67,
66,
68,
66,
67,
65,
62,
62,
61,
58,
57,
55,
54,
51,
49,
49,
48,
46,
45,
42,
41,
39,
36,
36,
35,
33,
33,
30,
29,
27,
25,
25,
23,
21,
21,
18,
19,
16,
14,
14,
14,
12,
12,
10,
9,
8,
6,
6,
7,
5,
3,
2,
2,
-1,
-3,
-3,
-3,
-4,
-5,
-6,
-7,
-8,
-9,
-8,
-9,
-10,
-9,
-11,
-11,
-13,
-14,
-14,
-14,
-16,
-17,
-17,
-17,
-19,
-21,
-20,
-19,
-20,
-21,
-22,
-22,
-22,
-23,
-22,
-24,
-24,
-25,
-25,
-27,
-27,
-28,
-28,
-27,
-29,
-29,
-29,
-28,
-30,
-30,
-30,
-29,
-30,
-30,
-32,
-31,
-32,
-32,
-32,
-31,
-32,
-32,
-33,
-33,
-34,
-34,
-34,
-33,
-33,
-33,
-35,
-33,
-34,
-34,
-34,
-34,
-35,
-35,
-34,
-35,
-35,
-36,
-35,
-34,
-35,
-35,
-36,
-36,
-37,
-36,
-36,
-35,
-34,
-35,
-36,
-35,
-37,
-37,
-36,
-35,
-34,
-34,
-35,
-36,
-36,
-36,
-36,
-33,
-32,
-29,
-27,
-23,
-18,
-14,
-7,
-2,
2,
5,
10,
13,
16,
20,
24,
28,
30,
33,
36,
38,
40,
42,
45,
48,
50,
51,
53,
56,
55,
56,
58,
61,
61,
63,
64,
65,
65,
64,
66,
67,
67,
67,
65,
67,
64,
61,
61,
59,
55,
54,
52,
50,
48,
47,
46,
47,
44,
41,
39,
39,
35,
34,
33,
32,
31,
29,
28,
27,
24,
23,
23,
22,
20,
19,
17,
16,
15,
14,
13,
12,
10,
9,
8,
8,
6,
4,
4,
3,
3,
1,
1,
0,
-2,
-5,
-4,
-3,
-4,
-5,
-7,
-7,
-9,
-9,
-8,
-9,
-11,
-11,
-12,
-12,
-14,
-17,
-15,
-16,
-16,
-17,
-19,
-19,
-19,
-21,
-21,
-20,
-22,
-23,
-23,
-23,
-25,
-25,
-23,
-24,
-25,
-25,
-26,
-27,
-27,
-28,
-28,
-28,
-28,
-29,
-29,
-29,
-31,
-31,
-31,
-29,
-31,
-31,
-32,
-31,
-33,
-34,
-32,
-32,
-32,
-31,
-33,
-33,
-34,
-34,
-34,
-33,
-33,
-34,
-34,
-34,
-35,
-35,
-34,
-34,
-35,
-34,
-35,
-35,
-36,
-36,
-36,
-35,
-35,
-35,
-36,
-36,
-37,
-36,
-36,
-35,
-35,
-35,
-36,
-35,
-36,
-36,
-36,
-33,
-33,
-33,
-32,
-29,
-28,
-22,
-16,
-9,
-5,
0,
5,
9,
11,
14,
17,
21,
24,
27,
31,
33,
35,
38,
41,
46,
47,
49,
51,
53,
53,
54,
56,
59,
60,
61,
62,
64,
64,
65,
65,
67,
66,
67,
66,
67,
65,
63,
62,
61,
58,
58,
55,
55,
53,
50,
49,
48,
45,
42,
42,
42,
38,
36,
36,
35,
32,
33,
30,
28,
27,
25,
25,
24,
22,
21,
19,
20,
16,
15,
16,
15,
13,
11,
11,
11,
8,
6,
6,
6,
4,
3,
1,
1,
-1,
-2,
-2,
-1,
-2,
-4,
-5,
-6,
-7,
-9,
-8,
-8,
-9,
-9,
-11,
-12,
-13,
-15,
-15,
-15,
-16,
-17,
-17,
-16,
-19,
-20,
-19,
-19,
-20,
-21,
-23,
-22,
-23,
-24,
-24,
-24,
-24,
-23,
-26,
-27,
-27,
-28,
-27,
-27,
-28,
-29,
-29,
-28,
-31,
-31,
-30,
-29,
-31,
-30,
-32,
-32,
-32,
-32,
-31,
-31,
-32,
-31,
-33,
-33,
-34,
-34,
-34,
-33,
-33,
-33,
-35,
-34,
-35,
-34,
-34,
-33,
-34,
-35,
-36,
-35,
-35,
-35,
-35,
-34,
-34,
-35,
-36,
-36,
-37,
-36,
-36,
-35,
-35,
-36,
-36,
-36,
-36,
-37,
-36,
-35,
-35,
-34,
-35,
-34,
-33,
-30,
-28,
-22,
-16,
-11,
-6,
-1,
3,
7,
11,
15,
19,
21,
24,
28,
30,
32,
35,
39,
41,
43,
46,
49,
48,
51,
52,
56,
56,
58,
60,
61,
62,
62,
64,
64,
66,
67,
67,
68,
67,
66,
66,
66,
63,
62,
60,
59,
56,
53,
52,
51,
48,
47,
45,
45,
43,
39,
40,
38,
36,
36,
33,
33,
30,
28,
27,
27,
26,
25,
22,
23,
19,
18,
18,
18,
16,
15,
13,
13,
10,
8,
9,
8,
7,
7,
4,
4,
2,
0,
0,
-1,
-1,
-3,
-4,
-3,
-5,
-6,
-6,
-7,
-8,
-8,
-10,
-11,
-11,
-14,
-12,
-12,
-13,
-16,
-16,
-16,
-17,
-18,
-18,
-18,
-20,
-19,
-21,
-21,
-22,
-23,
-21,
-22,
-23,
-24,
-25,
-24,
-26,
-28,
-27,
-26,
-27,
-27,
-28,
-28,
-29,
-30,
-29,
-29,
-30,
-29,
-31,
-31,
-33,
-33,
-32,
-30,
-30,
-31,
-32,
-33,
-33,
-34,
-34,
-32,
-33,
-34,
-33,
-32,
-34,
-34,
-34,
-33,
-34,
-35,
-35,
-35,
-36,
-36,
-36,
-33,
-34,
-34,
-35,
-35,
-36,
-36,
-36,
-35,
-35,
-35,
-36,
-35,
-37,
-37,
-36,
-35,
-35,
-35,
-35,
-35,
-36,
-36,
-34,
-31,
-30,
-27,
-22,
-17,
-11,
-7,
-2,
3,
6,
10,
14,
18,
19,
24,
27,
31,
34,
37,
39,
42,
43,
46,
48,
51,
53,
53,
55,
57,
57,
59,
60,
63,
62,
63,
64,
67,
67,
66,
67,
67,
67,
66,
64,
64,
61,
58,
58,
56,
54,
53,
51,
49,
46,
45,
44,
43,
41,
40,
37,
37,
34,
32,
32,
31,
28,
27,
27,
26,
24,
22,
22,
21,
19,
17,
15,
16,
13,
12,
12,
11,
9,
8,
7,
7,
6,
4,
3,
3,
2,
1,
-1,
-1,
-3,
-5,
-5,
-5,
-6,
-7,
-6,
-7,
-8,
-11,
-11,
-11,
-13,
-13,
-14,
-15,
-16,
-17,
-16,
-16,
-17,
-17,
-20,
-19,
-20,
-22,
-20,
-20,
-22,
-23,
-24,
-24,
-26,
-26,
-26,
-24,
-25,
-25,
-26,
-27,
-29,
-30,
-30,
-28,
-29,
-29,
-30,
-29,
-31,
-31,
-31,
-30,
-31,
-31,
-32,
-31,
-33,
-33,
-32,
-31,
-32,
-31,
-33,
-33,
-35,
-34,
-35,
-33,
-33,
-34,
-35,
-35,
-36,
-36,
-35,
-35,
-34,
-35,
-35,
-35,
-37,
-37,
-36,
-35,
-36,
-35,
-36,
-35,
-35,
-35,
-36,
-35,
-34,
-35,
-36,
-36,
-37,
-36,
-36,
-35,
-36,
-35,
-36,
-35,
-36,
-34,
-32,
-28,
-25,
-21,
-14,
-9,
-4,
0,
4,
8,
12,
15,
19,
23,
25,
29,
31,
35,
36,
40,
42,
45,
47,
49,
50,
53,
54,
55,
56,
59,
58,
59,
61,
64,
64,
66,
66,
67,
66,
65,
67,
67,
65,
63,
63,
62,
58,
57,
56,
54,
51,
51,
49,
48,
46,
44,
43,
40,
39,
37,
35,
36,
32,
30,
30,
30,
27,
27,
25,
24,
21,
19,
19,
19,
17,
17,
15,
14,
12,
10,
10,
10,
8,
7,
6,
6,
4,
2,
3,
2,
1,
0,
-2,
-2,
-4,
-5,
-4,
-5,
-8,
-7,
-8,
-9,
-11,
-13,
-11,
-11,
-12,
-14,
-15,
-16,
-17,
-18,
-16,
-16,
-17,
-19,
-21,
-19,
-21,
-22,
-20,
-21,
-23,
-23,
-24,
-24,
-26,
-26,
-26,
-25,
-27,
-27,
-27,
-27,
-29,
-29,
-29,
-28,
-29,
-31,
-32,
-30,
-32,
-32,
-31,
-31,
-31,
-31,
-32,
-32,
-33,
-34,
-33,
-32,
-32,
-33,
-33,
-33,
-34,
-35,
-35,
-33,
-34,
-34,
-35,
-34,
-34,
-35,
-34,
-34,
-34,
-35,
-35,
-35,
-37,
-36,
-35,
-34,
-34,
-35,
-36,
-35,
-36,
-36,
-36,
-35,
-35,
-35,
-36,
-36,
-36,
-37,
-35,
-35,
-35,
-35,
-34,
-32,
-30,
-26,
-20,
-14,
-9,
-4,
0,
5,
8,
11,
14,
19,
21,
24,
28,
31,
33,
36,
38,
42,
44,
47,
49,
51,
51,
53,
55,
58,
58,
59,
60,
62,
62,
64,
65,
66,
66,
67,
68,
69,
67,
65,
65,
63,
62,
60,
58,
55,
54,
52,
51,
50,
47,
45,
44,
44,
40,
37,
36,
36,
35,
35,
31,
31,
29,
27,
26,
25,
24,
23,
21,
21,
18,
17,
16,
16,
14,
13,
11,
11,
10,
7,
8,
7,
5,
5,
4,
4,
1,
-2,
-1,
-1,
-1,
-2,
-4,
-5,
-7,
-8,
-7,
-8,
-9,
-9,
-11,
-11,
-12,
-14,
-14,
-13,
-15,
-15,
-17,
-16,
-17,
-20,
-19,
-18,
-19,
-19,
-21,
-21,
-23,
-23,
-21,
-22,
-24,
-24,
-26,
-25,
-26,
-26,
-27,
-25,
-27,
-28,
-29,
-28,
-30,
-32,
-30,
-29,
-30,
-29,
-31,
-31,
-32,
-32,
-31,
-30,
-31,
-32,
-32,
-32,
-34,
-34,
-34,
-33,
-34,
-33,
-34,
-33,
-34,
-34,
-34,
-34,
-34,
-33,
-35,
-35,
-35,
-36,
-36,
-34,
-35,
-36,
-36,
-35,
-37,
-37,
-36,
-35,
-34,
-34,
-36,
-35,
-37,
-37,
-36,
-35,
-34,
-34,
-35,
-35,
-33,
-31,
-28,
-22,
-16,
-11,
-6,
-1,
3,
7,
10,
15,
17,
21,
25,
28,
29,
32,
35,
39,
42,
44,
46,
48,
49,
50,
52,
55,
56,
58,
60,
62,
62,
63,
63,
65,
65,
66,
66,
68,
67,
66,
66,
66,
62,
61,
59,
57,
55,
53,
53,
52,
48,
47,
45,
45,
43,
40,
40,
38,
36,
36,
33,
32,
29,
28,
27,
27,
25,
24,
22,
23,
20,
18,
18,
17,
15,
15,
12,
13,
11,
9,
9,
8,
7,
6,
4,
4,
1,
1,
1,
1,
-1,
-2,
-4,
-3,
-6,
-6,
-6,
-7,
-9,
-9,
-9,
-11,
-11,
-14,
-13,
-13,
-14,
-15,
-16,
-16,
-18,
-18,
-19,
-18,
-19,
-19,
-21,
-20,
-22,
-22,
-21,
-22,
-23,
-24,
-24,
-25,
-26,
-28,
-27,
-26,
-27,
-26,
-27,
-28,
-29,
-30,
-29,
-29,
-29,
-29,
-31,
-30,
-31,
-31,
-31,
-30,
-31,
-31,
-33,
-33,
-33,
-34,
-32,
-31,
-33,
-34,
-34,
-34,
-35,
-36,
-34,
-34,
-33,
-34,
-34,
-35,
-36,
-36,
-36,
-34,
-35,
-34,
-35,
-35,
-36,
-36,
-36,
-35,
-35,
-35,
-36,
-36,
-36,
-36,
-36,
-34,
-35,
-35,
-37,
-36,
-37,
-37,
-35,
-35,
-35,
-35,
-34,
-33,
-33,
-31,
-28,
-21,
-16,
-11,
-4,
0,
3,
7,
11,
15,
19,
21,
24,
28,
30,
33,
36,
40,
43,
44,
46,
49,
49,
51,
53,
56,
56,
59,
59,
61,
62,
62,
64,
65,
66,
66,
67,
68,
66,
66,
65,
64,
63,
62,
60,
59,
55,
53,
52,
51,
49,
47,
45,
45,
42,
40,
41,
39,
35,
35,
32,
32,
30,
27,
27,
26,
25,
25,
22,
23,
20,
18,
17,
17,
15,
13,
13,
13,
10,
9,
9,
7,
6,
5,
4,
4,
2,
1,
1,
0,
-1,
-2,
-4,
-4,
-6,
-7,
-6,
-6,
-7,
-8,
-10,
-10,
-12,
-14,
-14,
-13,
-14,
-15,
-15,
-15,
-17,
-18,
-18,
-18,
-18,
-18,
-20,
-20,
-21,
-23,
-21,
-22,
-23,
-24,
-24,
-24,
-26,
-27,
-27,
-26,
-27,
-27,
-28,
-28,
-29,
-30,
-29,
-29,
-29,
-29,
-30,
-31,
-32,
-33,
-32,
-30,
-30,
-31,
-33,
-32,
-33,
-34,
-32,
-33,
-34,
-33,
-34,
-33,
-35,
-35,
-35,
-34,
-34,
-34,
-34,
-35,
-36,
-36,
-36,
-34,
-35,
-35,
-36,
-35,
-36,
-36,
-35,
-35,
-35,
-35,
-35,
-35,
-36,
-37,
-37,
-35,
-34,
-35,
-36,
-36,
-37,
-37,
-36,
-35,
-35,
-34,
-34,
-31,
-30,
-26,
-21,
-15,
-10,
-5,
1,
6,
8,
12,
15,
19,
22,
25,
28,
30,
33,
36,
40,
43,
44,
46,
49,
51,
52,
53,
55,
58,
59,
60,
61,
63,
63,
63,
64,
66,
66,
67,
67,
69,
67,
64,
64,
63,
59,
59,
57,
55,
53,
52,
51,
50,
47,
45,
43,
44,
39,
37,
38,
36,
35,
34,
31,
29,
28,
26,
26,
26,
25,
23,
20,
21,
18,
16,
16,
15,
13,
13,
12,
11,
9,
8,
8,
7,
5,
4,
3,
3,
1,
-1,
0,
-1,
-2,
-3,
-5,
-5,
-7,
-8,
-7,
-8,
-9,
-9,
-10,
-11,
-13,
-15,
-14,
-13,
-15,
-16,
-16,
-16,
-18,
-20,
-19,
-18,
-20,
-19,
-22,
-20,
-22,
-23,
-22,
-23,
-23,
-25,
-25,
-25,
-27,
-27,
-26,
-25,
-27,
-27,
-29,
-28,
-31,
-31,
-30,
-29,
-29,
-29,
-31,
-31,
-33,
-33,
-33,
-32,
-32,
-31,
-32,
-33,
-33,
-34,
-34,
-32,
-33,
-33,
-34,
-33,
-34,
-34,
-34,
-34,
-34,
-34,
-35,
-35,
-36,
-35,
-36,
-34,
-35,
-35,
-35,
-35,
-37,
-36,
-35,
-36,
-36,
-36,
-36,
-36,
-36,
-36,
-36,
-35,
-35,
-35,
-36,
-36,
-37,
-36,
-35,
-34,
-33,
-32,
-30,
-27,
-24,
-18,
-13,
-7,
-2,
3,
7,
11,
12,
16,
20,
24,
27,
29,
32,
36,
37,
40,
42,
47,
47,
49,
51,
53,
54,
55,
57,
60,
59,
62,
62,
65,
65,
65,
66,
67,
66,
67,
66,
67,
65,
62,
61,
61,
59,
56,
54,
52,
49,
48,
49,
47,
44,
44,
41,
41,
38,
34,
34,
34,
32,
32,
30,
28,
26,
25,
24,
23,
21,
21,
18,
18,
16,
15,
15,
15,
13,
11,
10,
9,
6,
5,
6,
5,
4,
3,
3,
2,
0,
-3,
-2,
-3,
-3,
-4,
-6,
-5,
-7,
-8,
-7,
-9,
-10,
-10,
-12,
-14,
-14,
-16,
-15,
-14,
-16,
-17,
-17,
-16,
-19,
-20,
-19,
-19,
-20,
-19,
-23,
-23,
-24,
-24,
-24,
-24,
-25,
-25,
-26,
-26,
-28,
-28,
-28,
-27,
-28,
-29,
-29,
-28,
-30,
-31,
-30,
-30,
-31,
-31,
-32,
-31,
-32,
-33,
-32,
-31,
-32,
-31,
-33,
-33,
-34,
-34,
-34,
-33,
-33,
-33,
-34,
-33,
-35,
-34,
-33,
-33,
-33,
-34,
-35,
-36,
-36,
-36,
-36,
-34,
-34,
-35,
-36,
-35,
-35,
-36,
-36,
-35,
-35,
-35,
-36,
-36,
-37,
-37,
-36,
-35,
-33,
-33,
-34,
-33,
-32,
-28,
-23,
-17,
-13,
-7,
-3,
3,
5,
9,
13,
18,
20,
24,
28,
31,
32,
34,
37,
40,
44,
45,
48,
49,
50,
52,
53,
56,
58,
59,
60,
62,
62,
63,
64,
65,
65,
66,
66,
68,
67,
65,
64,
64,
62,
61,
59,
58,
55,
53,
52,
50,
48,
47,
44,
43,
41,
39,
38,
37,
35,
34,
32,
32,
30,
27,
27,
27,
24,
23,
20,
21,
17,
16,
16,
16,
15,
15,
12,
12,
10,
8,
8,
7,
6,
5,
4,
4,
1,
0,
1,
0,
-2,
-2,
-4,
-5,
-7,
-8,
-7,
-8,
-9,
-8,
-10,
-11,
-12,
-14,
-14,
-13,
-15,
-15,
-16,
-16,
-18,
-19,
-19,
-17,
-19,
-19,
-21,
-21,
-22,
-22,
-21,
-22,
-24,
-24,
-26,
-25,
-27,
-28,
-27,
-27,
-27,
-27,
-28,
-28,
-31,
-30,
-29,
-29,
-30,
-29,
-31,
-31,
-32,
-32,
-31,
-30,
-31,
-31,
-32,
-33,
-34,
-35,
-34,
-33,
-33,
-33,
-34,
-32,
-33,
-34,
-33,
-34,
-35,
-35,
-35,
-35,
-36,
-36,
-35,
-34,
-35,
-34,
-35,
-35,
-35,
-36,
-36,
-35,
-35,
-36,
-36,
-36,
-37,
-37,
-36,
-36,
-35,
-35,
-36,
-36,
-38,
-38,
-37,
-35,
-35,
-36,
-36,
-35,
-36,
-36,
-35,
-33,
-32,
-29,
-24,
-20,
-16,
-9,
-3,
1,
5,
9,
13,
17,
19,
21,
25,
29,
32,
35,
37,
41,
42,
44,
45,
50,
50,
53,
54,
56,
57,
57,
60,
61,
62,
63,
64,
65,
66,
65,
66,
67,
67,
66,
65,
65,
63,
60,
59,
58,
55,
54,
52,
50,
47,
47,
45,
45,
43,
41,
38,
39,
35,
33,
33,
32,
30,
29,
27,
25,
23,
21,
21,
21,
19,
18,
16,
16,
15,
14,
13,
12,
10,
9,
8,
8,
6,
4,
4,
3,
3,
2,
0,
-1,
-2,
-5,
-3,
-3,
-5,
-5,
-7,
-7,
-9,
-11,
-10,
-10,
-11,
-11,
-13,
-15,
-16,
-17,
-16,
-16,
-16,
-17,
-19,
-19,
-18,
-20,
-20,
-20,
-22,
-23,
-23,
-23,
-25,
-26,
-23,
-25,
-25,
-25,
-26,
-27,
-28,
-29,
-28,
-27,
-28,
-28,
-29,
-28,
-31,
-31,
-31,
-30,
-31,
-31,
-32,
-31,
-33,
-33,
-32,
-32,
-32,
-32,
-33,
-33,
-34,
-34,
-33,
-33,
-33,
-34,
-35,
-35,
-36,
-35,
-34,
-33,
-33,
-34,
-35,
-35,
-36,
-36,
-35,
-34,
-35,
-35,
-36,
-36,
-37,
-38,
-36,
-35,
-34,
-36,
-36,
-35,
-37,
-37,
-36,
-34,
-34,
-33,
-34,
-34,
-33,
-30,
-27,
-20,
-16,
-10,
-5,
0,
3,
8,
12,
16,
19,
21,
25,
28,
30,
33,
36,
40,
42,
44,
47,
48,
49,
50,
53,
55,
57,
58,
60,
62,
61,
62,
64,
65,
66,
66,
66,
68,
66,
66,
65,
64,
62,
61,
59,
58,
55,
52,
52,
51,
48,
48,
45,
44,
42,
40,
40,
38,
35,
35,
33,
32,
29,
29,
28,
27,
26,
25,
22,
23,
19,
18,
16,
17,
14,
13,
12,
13,
10,
8,
9,
8,
6,
5,
4,
4,
1,
1,
0,
0,
-2,
-2,
-4,
-4,
-5,
-7,
-6,
-7,
-8,
-7,
-9,
-12,
-12,
-14,
-13,
-12,
-13,
-15,
-16,
-16,
-18,
-19,
-18,
-17,
-19,
-19,
-21,
-20,
-21,
-22,
-21,
-22,
-24,
-24,
-25,
-24,
-27,
-27,
-26,
-25,
-27,
-27,
-28,
-28,
-29,
-30,
-29,
-28,
-30,
-29,
-31,
-29,
-32,
-32,
-31,
-31,
-31,
-31,
-32,
-33,
-33,
-34,
-34,
-32,
-33,
-33,
-34,
-32,
-34,
-34,
-34,
-33,
-34,
-33,
-35,
-36,
-36,
-35,
-35,
-33,
-34,
-35,
-35,
-35,
-37,
-37,
-36,
-35,
-36,
-35,
-35,
-36,
-37,
-36,
-36,
-34,
-35,
-35,
-36,
-35,
-36,
-35,
-34,
-31,
-30,
-26,
-23,
-18,
-13,
-7,
-3,
3,
6,
10,
14,
17,
20,
23,
27,
30,
33,
36,
39,
41,
42,
45,
47,
51,
51,
53,
55,
57,
57,
58,
60,
61,
62,
64,
64,
65,
66,
65,
66,
67,
66,
66,
64,
64,
62,
58,
58,
56,
53,
52,
51,
51,
47,
46,
44,
43,
41,
40,
36,
36,
34,
33,
32,
31,
29,
28,
27,
26,
24,
22,
21,
20,
19,
18,
16,
16,
14,
12,
12,
12,
10,
9,
7,
7,
5,
3,
3,
3,
2,
1,
-1,
-1,
-2,
-4,
-4,
-4,
-6,
-7,
-7,
-8,
-9,
-12,
-11,
-10,
-12,
-12,
-14,
-14,
-15,
-17,
-16,
-16,
-17,
-17,
-20,
-19,
-20,
-22,
-22,
-21,
-21,
-23,
-23,
-23,
-25,
-24,
-23,
-25,
-26,
-26,
-27,
-27,
-28,
-27,
-28,
-27,
-28,
-29,
-30,
-29,
-32,
-32,
-30,
-30,
-31,
-31,
-33,
-32,
-34,
-34,
-33,
-33,
-32,
-31,
-33,
-33,
-34,
-36,
-35,
-33,
-33,
-34,
-34,
-34,
-34,
-35,
-35,
-35,
-36,
-35,
-35,
-35,
-36,
-36,
-35,
-34,
-35,
-37,
-36,
-36,
-37,
-37,
-36,
-35,
-34,
-34,
-36,
-37,
-37,
-37,
-36,
-35,
-35,
-36,
-35,
-33,
-34,
-32,
-30,
-25,
-21,
-17,
-11,
-5,
-1,
2,
6,
11,
15,
17,
22,
25,
26,
29,
32,
37,
39,
41,
45,
46,
47,
49,
51,
53,
55,
57,
58,
60,
60,
61,
62,
64,
64,
65,
66,
68,
66,
65,
66,
67,
64,
64,
61,
61,
58,
56,
55,
53,
51,
49,
48,
47,
44,
42,
41,
40,
38,
37,
34,
33,
31,
30,
29,
29,
26,
26,
24,
24,
21,
19,
19,
19,
16,
16,
14,
14,
12,
10,
10,
9,
7,
7,
5,
5,
3,
1,
2,
2,
0,
-1,
-3,
-3,
-3,
-6,
-5,
-5,
-7,
-7,
-9,
-11,
-11,
-13,
-12,
-12,
-13,
-15,
-15,
-15,
-17,
-18,
-17,
-17,
-18,
-19,
-21,
-20,
-22,
-24,
-22,
-22,
-23,
-25,
-25,
-24,
-26,
-26,
-26,
-25,
-27,
-25,
-28,
-28,
-28,
-29,
-29,
-28,
-29,
-29,
-30,
-30,
-32,
-32,
-31,
-30,
-31,
-31,
-33,
-33,
-32,
-33,
-32,
-32,
-33,
-33,
-34,
-32,
-35,
-34,
-34,
-34,
-34,
-33,
-35,
-35,
-35,
-35,
-35,
-35,
-35,
-35,
-35,
-34,
-36,
-36,
-35,
-35,
-35,
-36,
-36,
-36,
-36,
-36,
-36,
-35,
-34,
-35,
-36,
-35,
-37,
-37,
-36,
-35,
-35,
-34,
-36,
-35,
-34,
-33,
-31,
-25,
-21,
-15,
-10,
-5,
-1,
3,
7,
12,
15,
17,
22,
25,
27,
30,
33,
37,
39,
42,
44,
47,
47,
49,
51,
53,
56,
57,
59,
60,
61,
62,
62,
64,
64,
65,
66,
68,
66,
65,
66,
66,
64,
63,
60,
61,
58,
55,
55,
53,
50,
49,
46,
45,
44,
42,
41,
40,
38,
37,
35,
35,
32,
30,
29,
29,
26,
25,
24,
24,
21,
19,
19,
18,
16,
15,
14,
15,
12,
10,
10,
8,
6,
7,
5,
41,
42,
45,
46,
