data/move-close.CSV

Memory Length,4000,
Trigger Level,0.00000e+00,
Source,CH1,
Probe,1.0X,
Vertical Units,V,
Vertical Scale,1.00000e-01,
Vertical Position,-5.20000e-02,
Horizontal Units,S,
Horizontal Scale,2.50000e-08,
Horizontal Position,4.0000000e-02,
Horizontal Mode,Main,
Sampling Period,1.00000e-09,
Firmware,V1.14,
Time, ,
Mode,Fast,
Waveform Data,
13,
13,
13,
13,
11,
9,
8,
7,
6,
4,
4,
4,
3,
2,
0,
0,
-2,
-5,
-3,
-3,
-6,
-6,
-6,
-7,
-8,
-10,
-10,
-9,
-11,
-11,
-13,
-14,
-15,
-16,
-15,
-15,
-16,
-18,
-19,
-19,
-20,
-21,
-20,
-19,
-21,
-23,
-23,
-23,
-24,
-25,
-24,
-24,
-24,
-25,
-26,
-27,
-27,
-29,
-29,
-28,
-29,
-28,
-29,
-28,
-31,
-31,
-30,
-29,
-30,
-31,
-32,
-31,
-33,
-33,
-32,
-31,
-32,
-31,
-33,
-32,
-35,
-35,
-34,
-32,
-33,
-33,
-34,
-33,
-34,
-34,
-34,
-34,
-35,
-34,
-35,
-35,
-36,
-36,
-35,
-34,
-36,
-35,
-36,
-35,
-35,
-36,
-36,
-35,
-34,
-36,
-36,
-35,
-37,
-36,
-36,
-34,
-34,
-34,
-34,
-33,
-34,
-31,
-28,
-23,
-17,
-11,
-6,
-1,
3,
6,
10,
15,
16,
20,
24,
28,
29,
33,
35,
39,
41,
44,
46,
49,
49,
51,
52,
55,
56,
57,
59,
62,
63,
63,
64,
65,
66,
67,
68,
68,
67,
66,
66,
66,
64,
63,
60,
60,
57,
54,
54,
52,
50,
49,
47,
45,
43,
41,
40,
39,
36,
35,
33,
33,
31,
30,
28,
28,
27,
25,
23,
24,
20,
19,
19,
19,
16,
15,
13,
14,
11,
10,
10,
9,
7,
7,
5,
5,
3,
1,
1,
1,
1,
-1,
-3,
-3,
-5,
-6,
-6,
-6,
-8,
-7,
-9,
-10,
-10,
-12,
-12,
-11,
-13,
-15,
-15,
-16,
-17,
-18,
-17,
-17,
-18,
-19,
-21,
-20,
-21,
-22,
-21,
-22,
-23,
-24,
-24,
-24,
-25,
-26,
-26,
-25,
-27,
-27,
-28,
-28,
-29,
-30,
-29,
-28,
-30,
-29,
-31,
-29,
-32,
-32,
-30,
-30,
-30,
-31,
-32,
-33,
-33,
-34,
-33,
-32,
-33,
-33,
-34,
-33,
-35,
-34,
-34,
-34,
-33,
-33,
-34,
-35,
-35,
-36,
-35,
-34,
-35,
-35,
-35,
-34,
-36,
-36,
-35,
-34,
-35,
-35,
-36,
-35,
-36,
-35,
-36,
-34,
-34,
-35,
-36,
-36,
-37,
-36,
-36,
-34,
-34,
-33,
-32,
-30,
-29,
-25,
-20,
-14,
-8,
-3,
2,
6,
9,
13,
16,
20,
23,
26,
29,
32,
34,
37,
40,
43,
45,
47,
49,
51,
52,
53,
56,
59,
59,
60,
62,
64,
63,
64,
65,
66,
67,
67,
67,
69,
67,
66,
64,
63,
60,
61,
57,
55,
54,
52,
51,
49,
47,
45,
44,
43,
40,
37,
37,
37,
35,
34,
31,
31,
28,
26,
26,
25,
24,
22,
20,
21,
18,
16,
16,
15,
13,
13,
11,
9,
8,
8,
8,
7,
5,
5,
3,
4,
1,
0,
0,
0,
-1,
-3,
-5,
-4,
-7,
-7,
-7,
-8,
-9,
-9,
-11,
-11,
-12,
-14,
-12,
-13,
-15,
-16,
-17,
-16,
-18,
-19,
-18,
-18,
-19,
-19,
-22,
-21,
-23,
-24,
-23,
-23,
-23,
-24,
-24,
-24,
-26,
-27,
-27,
-26,
-27,
-27,
-28,
-28,
-29,
-30,
-29,
-29,
-30,
-29,
-31,
-30,
-31,
-31,
-31,
-29,
-30,
-31,
-33,
-32,
-34,
-34,
-34,
-33,
-33,
-34,
-34,
-34,
-35,
-34,
-34,
-34,
-34,
-33,
-34,
-34,
-35,
-36,
-35,
-34,
-34,
-35,
-36,
-36,
-36,
-36,
-35,
-34,
-34,
-34,
-35,
-35,
-37,
-36,
-36,
-34,
-34,
-34,
-35,
-35,
-37,
-36,
-35,
-33,
-30,
-27,
-24,
-18,
-13,
-8,
-4,
2,
5,
9,
13,
17,
19,
22,
25,
31,
33,
35,
38,
41,
42,
44,
48,
49,
51,
53,
55,
57,
57,
59,
60,
63,
63,
64,
65,
66,
66,
66,
66,
67,
67,
67,
66,
67,
63,
59,
59,
57,
54,
53,
52,
51,
49,
48,
47,
45,
43,
41,
38,
39,
34,
33,
32,
31,
30,
29,
28,
28,
25,
23,
22,
21,
20,
19,
17,
17,
15,
13,
14,
13,
11,
9,
8,
8,
6,
4,
4,
4,
2,
1,
0,
0,
-3,
-4,
-3,
-3,
-4,
-5,
-7,
-7,
-9,
-10,
-11,
-9,
-11,
-11,
-13,
-13,
-14,
-16,
-14,
-16,
-16,
-15,
-18,
-18,
-20,
-21,
-20,
-19,
-22,
-23,
-24,
-23,
-24,
-24,
-23,
-24,
-25,
-25,
-26,
-27,
-27,
-29,
-28,
-27,
-28,
-28,
-30,
-29,
-31,
-31,
-31,
-30,
-32,
-32,
-31,
-29,
-32,
-33,
-32,
-31,
-32,
-32,
-33,
-33,
-34,
-34,
-34,
-32,
-33,
-34,
-34,
-35,
-35,
-36,
-34,
-34,
-34,
-34,
-35,
-35,
-36,
-36,
-36,
-34,
-35,
-35,
-35,
-35,
-36,
-36,
-36,
-35,
-36,
-35,
-36,
-36,
-37,
-37,
-36,
-35,
-34,
-34,
-36,
-36,
-37,
-35,
-35,
-33,
-31,
-29,
-25,
-20,
-16,
-11,
-6,
0,
3,
7,
12,
16,
17,
21,
24,
28,
31,
34,
37,
40,
42,
45,
45,
49,
51,
51,
53,
56,
57,
58,
60,
62,
63,
64,
64,
66,
66,
66,
66,
68,
67,
67,
67,
68,
63,
60,
60,
58,
56,
55,
53,
52,
50,
48,
46,
46,
43,
42,
39,
39,
35,
34,
33,
33,
30,
30,
28,
28,
26,
23,
22,
22,
20,
19,
17,
17,
15,
13,
12,
13,
11,
10,
8,
8,
6,
5,
5,
4,
2,
2,
0,
0,
-1,
-4,
-3,
-3,
-4,
-5,
-8,
-7,
-8,
-9,
-9,
-9,
-11,
-11,
-13,
-12,
-14,
-16,
-15,
-15,
-16,
-15,
-19,
-19,
-20,
-22,
-20,
-19,
-21,
-22,
-23,
-23,
-24,
-24,
-23,
-24,
-24,
-25,
-26,
-26,
-27,
-28,
-28,
-27,
-29,
-29,
-30,
-28,
-30,
-31,
-30,
-29,
-30,
-30,
-31,
-30,
-32,
-33,
-32,
-32,
-32,
-31,
-33,
-33,
-34,
-34,
-34,
-33,
-33,
-33,
-34,
-34,
-35,
-35,
-34,
-34,
-34,
-34,
-35,
-35,
-37,
-37,
-36,
-35,
-34,
-35,
-36,
-35,
-36,
-37,
-36,
-35,
-36,
-35,
-35,
-35,
-36,
-37,
-36,
-35,
-34,
-35,
-36,
-36,
-37,
-36,
-36,
-35,
-34,
-34,
-33,
-31,
-28,
-25,
-20,
-14,
-9,
-4,
2,
6,
8,
12,
16,
20,
23,
26,
29,
32,
33,
38,
40,
43,
45,
47,
49,
52,
53,
54,
56,
59,
59,
61,
61,
63,
63,
63,
64,
66,
66,
67,
68,
69,
67,
65,
64,
63,
59,
60,
57,
56,
54,
52,
51,
50,
47,
45,
44,
43,
40,
38,
38,
37,
35,
33,
31,
30,
28,
27,
26,
25,
24,
23,
20,
22,
18,
16,
16,
15,
14,
13,
12,
10,
9,
8,
8,
7,
4,
4,
2,
3,
1,
0,
0,
-1,
-2,
-3,
-5,
-5,
-7,
-8,
-7,
-8,
-8,
-10,
-10,
-11,
-12,
-14,
-13,
-13,
-15,
-15,
-15,
-16,
-18,
-20,
-20,
-18,
-20,
-19,
-22,
-20,
-23,
-23,
-21,
-24,
-24,
-24,
-25,
-24,
-26,
-27,
-26,
-25,
-27,
-27,
-29,
-28,
-30,
-30,
-29,
-29,
-29,
-29,
-31,
-30,
-32,
-32,
-32,
-31,
-32,
-32,
-32,
-32,
-33,
-34,
-34,
-33,
-33,
-33,
-35,
-34,
-34,
-34,
-33,
-33,
-34,
-34,
-35,
-36,
-36,
-36,
-35,
-33,
-34,
-35,
-35,
-35,
-36,
-36,
-36,
-35,
-35,
-36,
-36,
-35,
-36,
-37,
-37,
-36,
-35,
-35,
-36,
-36,
-37,
-37,
-36,
-34,
-36,
-35,
-35,
-35,
-36,
-34,
-32,
-28,
-25,
-21,
-15,
-9,
-5,
-2,
3,
7,
11,
15,
19,
23,
23,
27,
30,
35,
38,
40,
42,
46,
46,
48,
50,
53,
54,
55,
56,
59,
61,
61,
62,
63,
63,
65,
65,
68,
67,
66,
68,
67,
66,
66,
64,
62,
59,
57,
57,
55,
52,
51,
50,
49,
47,
45,
43,
42,
40,
39,
36,
36,
33,
32,
31,
31,
28,
27,
25,
24,
21,
20,
20,
20,
18,
17,
15,
15,
14,
12,
12,
10,
8,
8,
6,
6,
3,
2,
3,
3,
2,
0,
-2,
-1,
-3,
-5,
-4,
-5,
-7,
-7,
-8,
-9,
-10,
-11,
-10,
-10,
-12,
-13,
-14,
-15,
-16,
-17,
-15,
-16,
-17,
-17,
-20,
-19,
-20,
-22,
-20,
-21,
-22,
-23,
-24,
-24,
-24,
-25,
-26,
-25,
-26,
-25,
-26,
-27,
-29,
-28,
-28,
-27,
-29,
-29,
-30,
-28,
-31,
-31,
-31,
-30,
-32,
-32,
-32,
-31,
-33,
-33,
-33,
-33,
-32,
-31,
-32,
-33,
-33,
-34,
-35,
-33,
-33,
-34,
-35,
-34,
-35,
-35,
-34,
-33,
-33,
-33,
-35,
-36,
-37,
-36,
-36,
-34,
-35,
-35,
-36,
-35,
-36,
-36,
-36,
-35,
-34,
-35,
-36,
-36,
-36,
-37,
-35,
-34,
-33,
-32,
-31,
-27,
-25,
-20,
-13,
-8,
-4,
2,
6,
10,
12,
15,
19,
23,
26,
29,
32,
36,
38,
39,
42,
45,
47,
49,
51,
53,
55,
56,
57,
60,
60,
61,
62,
65,
64,
64,
66,
67,
67,
68,
67,
68,
66,
64,
62,
62,
59,
57,
56,
55,
52,
49,
49,
47,
45,
45,
42,
42,
38,
35,
35,
35,
32,
32,
29,
29,
28,
26,
25,
23,
22,
21,
19,
19,
16,
15,
15,
15,
14,
12,
10,
9,
8,
6,
6,
5,
4,
3,
2,
2,
0,
-1,
-1,
-2,
-2,
-4,
-5,
-5,
-8,
-9,
-8,
-9,
-10,
-10,
-11,
-12,
-12,
-15,
-14,
-13,
-16,
-17,
-16,
-16,
-19,
-21,
-20,
-19,
-20,
-20,
-23,
-21,
-23,
-24,
-23,
-24,
-24,
-25,
-26,
-25,
-27,
-27,
-26,
-27,
-28,
-29,
-30,
-29,
-30,
-30,
-30,
-28,
-29,
-29,
-32,
-31,
-33,
-32,
-32,
-31,
-31,
-31,
-33,
-32,
-34,
-34,
-34,
-33,
-33,
-34,
-34,
-34,
-34,
-34,
-34,
-34,
-34,
-34,
-35,
-35,
-36,
-36,
-36,
-34,
-34,
-35,
-35,
-35,
-37,
-36,
-36,
-35,
-34,
-35,
-36,
-35,
-36,
-37,
-36,
-34,
-34,
-34,
-35,
-34,
-34,
-31,
-28,
-23,
-17,
-13,
-8,
-3,
2,
6,
10,
14,
15,
19,
24,
27,
29,
32,
34,
39,
41,
43,
46,
48,
48,
51,
52,
56,
56,
57,
59,
61,
61,
62,
64,
65,
66,
67,
67,
68,
66,
65,
65,
65,
63,
62,
60,
60,
57,
54,
54,
53,
51,
47,
46,
44,
44,
42,
41,
39,
37,
36,
34,
33,
30,
28,
28,
28,
27,
25,
22,
23,
20,
19,
18,
17,
15,
14,
13,
14,
11,
10,
10,
9,
6,
7,
5,
5,
3,
1,
1,
0,
-1,
-2,
-4,
-4,
-5,
-6,
-5,
-7,
-8,
-8,
-9,
-11,
-12,
-14,
-13,
-13,
-13,
-15,
-15,
-15,
-16,
-18,
-17,
-17,
-18,
-17,
-20,
-20,
-21,
-22,
-21,
-22,
-23,
-25,
-25,
-25,
-26,
-26,
-25,
-24,
-26,
-26,
-28,
-28,
-29,
-30,
-29,
-28,
-29,
-29,
-30,
-31,
-33,
-33,
-32,
-30,
-31,
-31,
-31,
-31,
-31,
-33,
-32,
-33,
-32,
-33,
-34,
-32,
-34,
-34,
-34,
-33,
-33,
-34,
-35,
-35,
-35,
-35,
-35,
-34,
-34,
-35,
-35,
-35,
-36,
-37,
-35,
-35,
-34,
-35,
-35,
-35,
-36,
-36,
-37,
-35,
-36,
-35,
-36,
-36,
-36,
-37,
-36,
-35,
-34,
-33,
-33,
-31,
-30,
-26,
-20,
-13,
-8,
-3,
1,
5,
8,
12,
16,
20,
23,
26,
31,
32,
34,
37,
39,
42,
44,
47,
50,
52,
52,
54,
56,
59,
59,
60,
61,
64,
63,
63,
65,
66,
67,
68,
67,
68,
66,
65,
64,
63,
60,
59,
57,
55,
53,
50,
51,
50,
48,
45,
44,
44,
41,
38,
38,
36,
34,
34,
31,
30,
29,
28,
27,
26,
24,
22,
20,
21,
18,
17,
17,
16,
13,
13,
12,
11,
9,
7,
8,
7,
5,
5,
3,
4,
1,
-1,
-1,
-1,
-2,
-3,
-5,
-4,
-6,
-7,
-6,
-8,
-9,
-9,
-11,
-12,
-13,
-14,
-13,
-13,
-15,
-15,
-16,
-16,
-17,
-19,
-19,
-17,
-19,
-19,
-21,
-21,
-22,
-22,
-21,
-23,
-25,
-25,
-25,
-25,
-26,
-27,
-27,
-25,
-27,
-27,
-28,
-28,
-29,
-30,
-29,
-29,
-29,
-29,
-31,
-30,
-32,
-32,
-32,
-31,
-31,
-31,
-32,
-32,
-33,
-34,
-33,
-33,
-33,
-33,
-33,
-33,
-34,
-34,
-34,
-33,
-33,
-34,
-34,
-35,
-35,
-35,
-35,
-33,
-34,
-35,
-36,
-35,
-36,
-36,
-36,
-34,
-34,
-35,
-35,
-36,
-37,
-37,
-36,
-35,
-34,
-35,
-36,
-36,
-36,
-37,
-35,
-34,
-35,
-35,
-35,
-34,
-33,
-30,
-27,
-21,
-16,
-11,
-5,
0,
3,
7,
11,
15,
17,
21,
26,
29,
30,
32,
35,
40,
42,
44,
47,
49,
49,
52,
53,
56,
56,
59,
60,
62,
62,
63,
64,
65,
67,
67,
67,
68,
67,
66,
65,
66,
64,
62,
60,
60,
57,
54,
54,
52,
50,
49,
46,
46,
44,
41,
40,
39,
36,
36,
33,
33,
30,
29,
28,
28,
27,
25,
23,
23,
20,
19,
19,
18,
15,
15,
13,
13,
11,
9,
9,
8,
7,
7,
4,
4,
3,
1,
2,
1,
0,
-1,
-3,
-3,
-5,
-6,
-4,
-6,
-8,
-8,
-9,
-11,
-12,
-13,
-12,
-12,
-14,
-15,
-15,
-15,
-17,
-18,
-18,
-17,
-18,
-17,
-20,
-20,
-21,
-22,
-20,
-21,
-21,
-23,
-24,
-25,
-25,
-26,
-25,
-25,
-26,
-27,
-28,
-27,
-29,
-30,
-28,
-28,
-29,
-29,
-30,
-31,
-32,
-32,
-31,
-30,
-30,
-31,
-33,
-32,
-33,
-34,
-33,
-32,
-33,
-33,
-34,
-33,
-35,
-36,
-35,
-33,
-33,
-33,
-35,
-35,
-35,
-35,
-35,
-34,
-35,
-35,
-35,
-35,
-37,
-37,
-35,
-34,
-34,
-35,
-36,
-36,
-37,
-37,
-37,
-35,
-34,
-34,
-36,
-36,
-37,
-37,
-36,
-34,
-34,
-35,
-34,
-33,
-32,
-28,
-24,
-18,
-13,
-7,
-3,
1,
5,
10,
13,
18,
20,
22,
27,
29,
31,
34,
36,
41,
43,
45,
48,
50,
50,
53,
55,
56,
58,
59,
61,
63,
63,
63,
64,
66,
66,
66,
67,
69,
67,
67,
66,
65,
63,
61,
60,
58,
55,
53,
52,
51,
49,
47,
45,
44,
42,
39,
39,
38,
35,
35,
33,
32,
30,
27,
27,
26,
25,
23,
23,
23,
19,
18,
18,
16,
14,
14,
12,
12,
10,
9,
9,
9,
7,
7,
4,
4,
1,
0,
0,
-1,
-2,
-2,
-3,
-2,
-5,
-6,
-6,
-7,
-8,
-8,
-9,
-10,
-11,
-14,
-13,
-13,
-13,
-15,
-15,
-15,
-17,
-18,
-17,
-17,
-18,
-19,
-21,
-21,
-22,
-23,
-21,
-22,
-23,
-23,
-25,
-25,
-27,
-27,
-27,
-26,
-27,
-27,
-28,
-27,
-29,
-30,
-29,
-29,
-30,
-29,
-30,
-29,
-32,
-32,
-31,
-30,
-30,
-31,
-32,
-32,
-33,
-33,
-32,
-31,
-33,
-34,
-34,
-34,
-35,
-35,
-35,
-33,
-34,
-34,
-34,
-34,
-36,
-36,
-35,
-34,
-33,
-34,
-35,
-35,
-35,
-35,
-35,
-34,
-34,
-35,
-36,
-36,
-36,
-37,
-36,
-34,
-34,
-36,
-36,
-36,
-37,
-36,
-36,
-35,
-35,
-33,
-32,
-30,
-28,
-23,
-19,
-12,
-6,
-2,
4,
8,
10,
13,
16,
20,
24,
27,
30,
33,
35,
38,
40,
44,
45,
47,
50,
53,
52,
54,
56,
59,
59,
61,
62,
64,
64,
64,
65,
67,
67,
67,
67,
68,
66,
65,
64,
63,
60,
59,
57,
56,
53,
50,
51,
49,
47,
45,
44,
44,
40,
38,
37,
36,
34,
34,
32,
30,
28,
26,
26,
25,
23,
21,
20,
21,
18,
16,
16,
16,
14,
13,
11,
11,
9,
8,
7,
7,
5,
5,
4,
4,
1,
0,
0,
-1,
-2,
-3,
-5,
-5,
-6,
-7,
-6,
-8,
-9,
-9,
-10,
-12,
-14,
-15,
-14,
-13,
-15,
-17,
-16,
-16,
-17,
-19,
-18,
-17,
-19,
-19,
-22,
-21,
-23,
-23,
-22,
-23,
-24,
-25,
-25,
-25,
-27,
-27,
-27,
-27,
-28,
-27,
-28,
-27,
-29,
-30,
-29,
-29,
-30,
-31,
-31,
-31,
-32,
-31,
-31,
-30,
-30,
-31,
-33,
-32,
-33,
-34,
-32,
-33,
-33,
-33,
-34,
-33,
-34,
-34,
-35,
-33,
-33,
-33,
-34,
-34,
-35,
-35,
-35,
-34,
-35,
-35,
-36,
-35,
-36,
-36,
-36,
-34,
-34,
-35,
-36,
-35,
-36,
-37,
-36,
-35,
-34,
-35,
-36,
-36,
-37,
-37,
-36,
-35,
-35,
-35,
-36,
-36,
-37,
-37,
-36,
-35,
-34,
-34,
-33,
-32,
-30,
-26,
-20,
-14,
-9,
-5,
1,
6,
8,
12,
14,
19,
23,
25,
28,
31,
33,
37,
40,
43,
46,
48,
50,
51,
52,
54,
56,
58,
59,
61,
61,
64,
64,
64,
65,
66,
66,
67,
67,
69,
66,
65,
64,
63,
60,
59,
57,
55,
54,
52,
51,
49,
47,
45,
44,
44,
41,
38,
37,
36,
34,
33,
31,
31,
30,
26,
26,
26,
24,
22,
21,
22,
19,
17,
17,
15,
15,
14,
12,
11,
9,
8,
8,
7,
6,
4,
3,
3,
1,
-1,
0,
-1,
-2,
-3,
-5,
-5,
-6,
-7,
-7,
-8,
-9,
-9,
-10,
-11,
-12,
-14,
-13,
-13,
-14,
-15,
-16,
-16,
-18,
-19,
-19,
-18,
-20,
-19,
-22,
-21,
-22,
-22,
-21,
-23,
-23,
-23,
-25,
-24,
-27,
-27,
-26,
-25,
-28,
-27,
-28,
-28,
-30,
-30,
-30,
-29,
-29,
-29,
-30,
-30,
-31,
-32,
-32,
-31,
-30,
-32,
-33,
-33,
-34,
-34,
-33,
-32,
-33,
-34,
-34,
-34,
-34,
-34,
-34,
-33,
-33,
-35,
-35,
-35,
-36,
-36,
-35,
-34,
-34,
-34,
-34,
-34,
-36,
-37,
-36,
-35,
-36,
-36,
-36,
-35,
-35,
-36,
-36,
-35,
-34,
-34,
-36,
-36,
-37,
-35,
-35,
-33,
-32,
-29,
-27,
-22,
-17,
-12,
-6,
-1,
3,
7,
12,
16,
18,
21,
24,
28,
30,
33,
36,
39,
40,
44,
46,
49,
51,
52,
54,
56,
57,
58,
59,
62,
62,
63,
64,
66,
65,
66,
67,
68,
67,
67,
66,
67,
63,
60,
60,
59,
56,
56,
54,
52,
50,
47,
46,
47,
44,
42,
39,
39,
35,
34,
34,
33,
31,
31,
28,
28,
26,
24,
24,
22,
22,
19,
18,
17,
15,
14,
13,
12,
11,
10,
8,
7,
6,
5,
4,
4,
2,
2,
0,
0,
-1,
-4,
-2,
-3,
-4,
-4,
-6,
-6,
-9,
-10,
-10,
-9,
-10,
-11,
-12,
-12,
-13,
-16,
-15,
-16,
-16,
-16,
-17,
-19,
-20,
-21,
-20,
-20,
-21,
-23,
-24,
-22,
-23,
-23,
-23,
-24,
-25,
-25,
-27,
-27,
-27,
-28,
-28,
-26,
-28,
-28,
-30,
-28,
-31,
-32,
-31,
-29,
-30,
-31,
-31,
-30,
-33,
-34,
-32,
-32,
-32,
-32,
-33,
-32,
-34,
-34,
-34,
-32,
-33,
-33,
-35,
-34,
-35,
-34,
-34,
-34,
-34,
-34,
-35,
-35,
-35,
-36,
-35,
-34,
-34,
-35,
-36,
-36,
-36,
-36,
-36,
-35,
-34,
-34,
-36,
-35,
-37,
-37,
-36,
-34,
-34,
-35,
-35,
-35,
-36,
-34,
-32,
-28,
-24,
-20,
-15,
-8,
-4,
0,
4,
8,
12,
15,
20,
23,
24,
27,
30,
35,
37,
39,
43,
46,
47,
48,
50,
52,
54,
55,
57,
60,
60,
61,
62,
64,
64,
66,
66,
68,
67,
67,
68,
67,
67,
65,
64,
63,
59,
57,
57,
55,
52,
53,
51,
49,
47,
46,
44,
42,
40,
38,
37,
36,
33,
31,
30,
31,
28,
27,
25,
25,
22,
21,
21,
20,
19,
17,
16,
15,
13,
12,
11,
10,
8,
8,
7,
6,
4,
3,
3,
2,
1,
0,
-2,
-1,
-2,
-4,
-4,
-4,
-7,
-7,
-8,
-10,
-11,
-12,
-11,
-11,
-12,
-12,
-14,
-15,
-16,
-18,
-17,
-17,
-17,
-17,
-20,
-19,
-19,
-22,
-20,
-21,
-22,
-23,
-24,
-24,
-25,
-26,
-25,
-25,
-25,
-25,
-27,
-27,
-28,
-29,
-28,
-28,
-29,
-29,
-30,
-31,
-32,
-31,
-31,
-30,
-31,
-31,
-32,
-31,
-33,
-34,
-34,
-32,
-32,
-32,
-33,
-32,
-33,
-34,
-35,
-33,
-33,
-33,
-33,
-34,
-35,
-35,
-34,
-35,
-35,
-35,
-35,
-35,
-37,
-37,
-36,
-34,
-35,
-35,
-36,
-36,
-37,
-36,
-36,
-35,
-34,
-34,
-35,
-35,
-36,
-36,
-35,
-33,
-32,
-30,
-28,
-24,
-20,
-14,
-9,
-3,
2,
5,
10,
13,
16,
20,
22,
27,
28,
31,
36,
39,
39,
42,
44,
48,
50,
51,
53,
55,
56,
57,
59,
61,
61,
63,
65,
66,
66,
66,
66,
68,
67,
67,
66,
68,
65,
62,
62,
60,
57,
55,
54,
52,
49,
49,
48,
47,
46,
44,
41,
40,
37,
35,
34,
34,
31,
31,
29,
28,
25,
24,
24,
23,
21,
20,
17,
18,
16,
14,
14,
14,
11,
11,
10,
8,
7,
6,
6,
5,
3,
2,
1,
1,
-1,
-3,
-2,
-2,
-3,
-5,
-6,
-5,
-8,
-8,
-8,
-9,
-10,
-10,
-12,
-14,
-14,
-16,
-15,
-14,
-16,
-15,
-17,
-17,
-18,
-21,
-20,
-19,
-20,
-21,
-23,
-22,
-23,
-25,
-23,
-24,
-23,
-25,
-26,
-27,
-27,
-27,
-26,
-26,
-28,
-29,
-29,
-28,
-30,
-30,
-30,
-29,
-30,
-30,
-32,
-31,
-33,
-33,
-32,
-30,
-30,
-31,
-33,
-32,
-34,
-34,
-34,
-33,
-34,
-33,
-35,
-34,
-34,
-34,
-33,
-33,
-34,
-34,
-35,
-35,
-36,
-36,
-36,
-33,
-34,
-35,
-35,
-35,
-36,
-35,
-35,
-35,
-34,
-35,
-36,
-35,
-36,
-38,
-36,
-35,
-36,
-35,
-36,
-36,
-37,
-36,
-36,
-35,
-33,
-32,
-31,
-27,
-24,
-19,
-14,
-8,
-4,
2,
7,
11,
13,
16,
19,
24,
26,
29,
32,
36,
37,
40,
43,
47,
47,
49,
52,
55,
54,
56,
57,
60,
60,
62,
64,
65,
65,
65,
66,
67,
67,
67,
66,
67,
65,
63,
62,
62,
59,
57,
55,
54,
52,
50,
50,
47,
45,
44,
41,
41,
38,
35,
35,
35,
33,
33,
30,
29,
27,
26,
25,
24,
22,
21,
19,
19,
17,
16,
16,
15,
13,
11,
11,
10,
8,
6,
6,
6,
4,
4,
2,
0,
0,
-2,
0,
-1,
-2,
-3,
-5,
-5,
-7,
-8,
-7,
-8,
-10,
-9,
-11,
-12,
-13,
-15,
-15,
-14,
-16,
-17,
-18,
-16,
-19,
-20,
-19,
-19,
-20,
-20,
-23,
-21,
-23,
-24,
-21,
-23,
-24,
-25,
-26,
-27,
-27,
-28,
-28,
-27,
-27,
-28,
-29,
-27,
-29,
-30,
-29,
-29,
-29,
-30,
-31,
-30,
-32,
-32,
-32,
-32,
-32,
-31,
-33,
-33,
-34,
-34,
-33,
-32,
-33,
-33,
-34,
-33,
-34,
-35,
-34,
-34,
-34,
-33,
-34,
-35,
-36,
-36,
-35,
-34,
-34,
-34,
-35,
-35,
-37,
-36,
-36,
-35,
-36,
-36,
-36,
-35,
-36,
-36,
-35,
-33,
-32,
-31,
-30,
-26,
-22,
-17,
-11,
-4,
1,
4,
8,
12,
15,
18,
20,
25,
28,
31,
34,
38,
40,
42,
44,
47,
48,
51,
53,
55,
55,
56,
58,
60,
60,
63,
64,
65,
65,
66,
67,
68,
67,
67,
67,
68,
65,
62,
61,
60,
58,
57,
55,
53,
51,
48,
47,
47,
43,
43,
41,
40,
38,
36,
36,
34,
31,
31,
29,
28,
27,
25,
25,
23,
21,
21,
19,
19,
16,
15,
14,
15,
12,
11,
10,
9,
8,
6,
5,
4,
3,
2,
2,
1,
-1,
-2,
-2,
-2,
-4,
-5,
-7,
-6,
-8,
-9,
-8,
-9,
-10,
-10,
-12,
-14,
-14,
-15,
-14,
-14,
-16,
-17,
-16,
-16,
-19,
-20,
-20,
-19,
-20,
-19,
-23,
-23,
-23,
-24,
-23,
-24,
-24,
-25,
-26,
-26,
-26,
-27,
-27,
-26,
-28,
-29,
-29,
-29,
-31,
-30,
-29,
-29,
-29,
-30,
-32,
-30,
-33,
-33,
-32,
-31,
-32,
-31,
-33,
-34,
-34,
-34,
-34,
-33,
-33,
-34,
-35,
-33,
-34,
-34,
-33,
-34,
-34,
-34,
-34,
-35,
-35,
-36,
-35,
-33,
-34,
-34,
-35,
-36,
-37,
-36,
-36,
-35,
-34,
-35,
-36,
-35,
-36,
-37,
-36,
-35,
-36,
-35,
-35,
-35,
-35,
-34,
-32,
-27,
-24,
-19,
-14,
-8,
-3,
0,
4,
9,
12,
15,
19,
23,
25,
29,
30,
35,
37,
41,
43,
46,
46,
48,
50,
52,
54,
56,
58,
60,
60,
61,
61,
64,
64,
66,
66,
68,
67,
66,
67,
67,
66,
64,
64,
63,
59,
57,
57,
55,
52,
51,
49,
48,
46,
44,
42,
42,
40,
38,
36,
36,
32,
31,
31,
30,
27,
27,
25,
24,
22,
20,
20,
19,
18,
17,
14,
14,
13,
11,
12,
10,
9,
8,
6,
5,
3,
3,
3,
3,
0,
-1,
-3,
-2,
-3,
-5,
-4,
-5,
-7,
-7,
-7,
-8,
-11,
-13,
-11,
-11,
-12,
-12,
-14,
-16,
-16,
-17,
-16,
-17,
-17,
-18,
-20,
-19,
-21,
-22,
-20,
-21,
-22,
-23,
-24,
-24,
-26,
-26,
-26,
-25,
-26,
-25,
-26,
-27,
-29,
-29,
-28,
-27,
-29,
-29,
-30,
-30,
-32,
-31,
-30,
-30,
-32,
-31,
-32,
-31,
-33,
-33,
-32,
-31,
-32,
-31,
-34,
-33,
-34,
-35,
-35,
-33,
-34,
-34,
-35,
-34,
-35,
-35,
-34,
-34,
-34,
-35,
-35,
-35,
-37,
-36,
-36,
-34,
-34,
-35,
-35,
-35,
-35,
-36,
-36,
-35,
-35,
-36,
-37,
-36,
-37,
-37,
-36,
-35,
-36,
-35,
-36,
-36,
-37,
-36,
-35,
-33,
-31,
-27,
-24,
-19,
-15,
-10,
-5,
0,
4,
8,
13,
16,
18,
22,
25,
29,
32,
35,
38,
40,
42,
45,
46,
50,
51,
52,
54,
57,
57,
58,
60,
62,
63,
64,
65,
67,
66,
65,
66,
67,
66,
67,
65,
67,
64,
60,
59,
59,
55,
54,
52,
50,
48,
46,
45,
46,
44,
41,
39,
40,
36,
34,
33,
31,
30,
29,
27,
27,
25,
23,
22,
22,
20,
19,
17,
16,
15,
13,
12,
12,
10,
9,
8,
8,
6,
5,
6,
4,
3,
2,
0,
0,
-2,
-4,
-4,
-3,
-5,
-6,
-7,
28,
